masses:        e= 9.109e-31; ions in proton mass units:    2.000e+00  4.000e+00 ...
charges:       e=-1.602e-19; charges in elementary units:  1.000e+00  1.800e+01
n:             e:  1.000e+00                           i:  1.000e+00  1.000e-05
thermal T (K): e= 5.802e+07 i= 5.802e+07  5.802e+06. v_0= 2.965e+07 ( 9.892e-02c) n_0= 1.000e+20 t_0= 6.470e-05, classical, Intuitive, 1 batched
Domain radius (AMR levels) grid 0:  5.000e+00 (2) , 1:  8.252e-02 (1) 
Using default Plex order for all matrices
0) FormLandau 352 IPs, 22 cells total, Nb=16, Nq=16, dim=2, Tab: Nb=16 Nf=3 Np=16 cdim=2 N=324
  0) species-0: charge density= -1.6024538233648e+01 z-momentum=  1.0426655338743e-19 energy=  1.2009868166183e+05
  0) species-1: charge density=  1.6068752193414e+01 z-momentum=  4.8499706411349e-17 energy=  1.1752123333205e+05
  0) species-2: charge density=  2.7152642046327e-04 z-momentum= -8.5309169248347e-22 energy=  1.1701658725855e+00
	  0) Total: charge density=  4.4485486187274e-02, momentum=  4.8603119873044e-17, energy=  2.3762108515975e+05 (m_i[0]/m_e = 3670.94, 14 cells on electron grid)
0 TS dt 0.1 time 0.
    0 SNES Function norm 5.936579579553e-03 
    1 SNES Function norm 3.869178989576e-05 
    2 SNES Function norm 5.878584904851e-07 
    3 SNES Function norm 3.277796740757e-08 
    4 SNES Function norm 2.294995916098e-09 
    5 SNES Function norm 1.656004213171e-10 
    6 SNES Function norm 1.185790917415e-11 
    7 SNES Function norm 8.499953528276e-13 
    8 SNES Function norm 6.219238157965e-14 
  Nonlinear solve converged due to CONVERGED_SNORM_RELATIVE iterations 8
    0 SNES Function norm 3.317389772982e-03 
    1 SNES Function norm 7.974972353378e-06 
    2 SNES Function norm 9.610108037488e-08 
    3 SNES Function norm 2.566396983668e-09 
    4 SNES Function norm 9.582467231969e-11 
    5 SNES Function norm 3.809351023391e-12 
    6 SNES Function norm 1.522565619232e-13 
  Nonlinear solve converged due to CONVERGED_SNORM_RELATIVE iterations 6
    0 SNES Function norm 3.791408008854e-03 
    1 SNES Function norm 1.052876201161e-05 
    2 SNES Function norm 1.290071307605e-07 
    3 SNES Function norm 3.725271870096e-09 
    4 SNES Function norm 1.417963448715e-10 
    5 SNES Function norm 5.697507456976e-12 
    6 SNES Function norm 2.279066185462e-13 
  Nonlinear solve converged due to CONVERGED_SNORM_RELATIVE iterations 6
1 TS dt 0.12133 time 0.1
  1) species-0: charge density= -1.6024538233648e+01 z-momentum= -4.1003700770338e-21 energy=  1.2009859713040e+05
  1) species-1: charge density=  1.6068752193414e+01 z-momentum=  1.1776340212801e-17 energy=  1.1752125946937e+05
  1) species-2: charge density=  2.7152642046328e-04 z-momentum= -3.4080090299203e-22 energy=  1.2285599870208e+00
	  1) Total: charge density=  4.4485486187278e-02, momentum=  1.1771899041821e-17, energy=  2.3762108515975e+05 (m_i[0]/m_e = 3670.94, 14 cells on electron grid)
DM Object: single 1 MPI process
  type: plex
single in 2 dimensions:
  Number of 0-cells per rank: 15
  Number of 1-cells per rank: 22
  Number of 2-cells per rank: 8
Labels:
  marker: 1 strata with value/size (1 (24))
  Face Sets: 4 strata with value/size (4 (6), 1 (3), 2 (6), 3 (3))
  _forest_base_subpoint_map: 15 strata with value/size (0 (9), 1 (9), 11 (3), 8 (3), 13 (3), 9 (3), 12 (3), 14 (3), 10 (3), 2 (1), 3 (1), 4 (1), 5 (1), 6 (1), 7 (1))
  depth: 3 strata with value/size (0 (15), 1 (22), 2 (8))
  celltype: 3 strata with value/size (4 (8), 1 (22), 0 (15))
Field species:
  adjacency FEM
Vec Object: u 1 MPI process
  type: seqaijcusparse
Process [0]
1.
1.
1.
1.
1.
1.
1.
1.
1.
1.
1.
1.
1.
1.
1.
1.
1.
1.
1.
1.
1.
1.
1.
1.
1.
1.
1.
1.
1.
1.
1.
1.
1.
1.
1.
1.
1.
1.
1.
1.
1.
1.
1.
1.
1.
1.
1.
1.
1.
1.
1.
1.
1.
1.
1.
1.
1.
1.
1.
1.
1.
1.
1.
1.
1.
1.
1.
1.
1.
1.
1.
1.
1.
1.
1.
1.
1.
1.
1.
1.
1.
1.
1.
1.
1.
1.
1.
1.
1.
1.
1.
