DM Object: Generated Mesh 1 MPI process
  type: plex
Generated Mesh in 2 dimensions:
Supports:
[0] Max support size: 10
[0]: 180 ----> 322
[0]: 180 ----> 324
[0]: 180 ----> 325
[0]: 180 ----> 437
[0]: 180 ----> 439
[0]: 180 ----> 441
[0]: 180 ----> 465
[0]: 180 ----> 467
[0]: 180 ----> 531
[0]: 180 ----> 532
[0]: 181 ----> 297
[0]: 181 ----> 299
[0]: 181 ----> 311
[0]: 181 ----> 417
[0]: 181 ----> 465
[0]: 181 ----> 466
[0]: 181 ----> 477
[0]: 181 ----> 506
[0]: 182 ----> 417
[0]: 182 ----> 418
[0]: 182 ----> 459
[0]: 182 ----> 460
[0]: 182 ----> 462
[0]: 182 ----> 468
[0]: 182 ----> 476
[0]: 183 ----> 350
[0]: 183 ----> 352
[0]: 183 ----> 422
[0]: 183 ----> 426
[0]: 183 ----> 459
[0]: 183 ----> 469
[0]: 183 ----> 471
[0]: 184 ----> 292
[0]: 184 ----> 294
[0]: 184 ----> 312
[0]: 184 ----> 350
[0]: 184 ----> 351
[0]: 184 ----> 377
[0]: 184 ----> 467
[0]: 184 ----> 505
[0]: 185 ----> 307
[0]: 185 ----> 308
[0]: 185 ----> 315
[0]: 185 ----> 438
[0]: 185 ----> 439
[0]: 185 ----> 440
[0]: 186 ----> 307
[0]: 186 ----> 309
[0]: 186 ----> 314
[0]: 186 ----> 341
[0]: 186 ----> 349
[0]: 186 ----> 385
[0]: 187 ----> 316
[0]: 187 ----> 318
[0]: 187 ----> 319
[0]: 187 ----> 321
[0]: 187 ----> 338
[0]: 187 ----> 343
[0]: 187 ----> 385
[0]: 187 ----> 386
[0]: 188 ----> 386
[0]: 188 ----> 387
[0]: 188 ----> 388
[0]: 188 ----> 481
[0]: 188 ----> 482
[0]: 188 ----> 485
[0]: 189 ----> 287
[0]: 189 ----> 288
[0]: 189 ----> 300
[0]: 189 ----> 481
[0]: 189 ----> 483
[0]: 189 ----> 484
[0]: 190 ----> 278
[0]: 190 ----> 280
[0]: 190 ----> 284
[0]: 190 ----> 286
[0]: 190 ----> 287
[0]: 190 ----> 502
[0]: 191 ----> 395
[0]: 191 ----> 396
[0]: 191 ----> 399
[0]: 191 ----> 494
[0]: 191 ----> 501
[0]: 191 ----> 502
[0]: 192 ----> 395
[0]: 192 ----> 397
[0]: 192 ----> 398
[0]: 192 ----> 432
[0]: 192 ----> 433
[0]: 192 ----> 436
[0]: 193 ----> 432
[0]: 193 ----> 434
[0]: 193 ----> 435
[0]: 193 ----> 533
[0]: 193 ----> 535
[0]: 193 ----> 539
[0]: 194 ----> 533
[0]: 194 ----> 534
[0]: 194 ----> 536
[0]: 194 ----> 538
[0]: 195 ----> 366
[0]: 195 ----> 368
[0]: 195 ----> 378
[0]: 195 ----> 380
[0]: 195 ----> 536
[0]: 195 ----> 537
[0]: 196 ----> 322
[0]: 196 ----> 323
[0]: 196 ----> 326
[0]: 196 ----> 537
[0]: 197 ----> 374
[0]: 197 ----> 376
[0]: 197 ----> 401
[0]: 197 ----> 450
[0]: 197 ----> 526
[0]: 198 ----> 389
[0]: 198 ----> 391
[0]: 198 ----> 510
[0]: 198 ----> 511
[0]: 198 ----> 521
[0]: 199 ----> 406
[0]: 199 ----> 408
[0]: 199 ----> 512
[0]: 199 ----> 513
[0]: 199 ----> 520
[0]: 200 ----> 298
[0]: 200 ----> 299
[0]: 200 ----> 310
[0]: 200 ----> 345
[0]: 200 ----> 384
[0]: 200 ----> 416
[0]: 200 ----> 429
[0]: 201 ----> 292
[0]: 201 ----> 293
[0]: 201 ----> 313
[0]: 201 ----> 336
[0]: 201 ----> 392
[0]: 201 ----> 427
[0]: 201 ----> 452
[0]: 202 ----> 271
[0]: 202 ----> 272
[0]: 202 ----> 274
[0]: 202 ----> 275
[0]: 202 ----> 277
[0]: 202 ----> 296
[0]: 202 ----> 339
[0]: 202 ----> 342
[0]: 203 ----> 281
[0]: 203 ----> 283
[0]: 203 ----> 305
[0]: 203 ----> 331
[0]: 203 ----> 332
[0]: 203 ----> 334
[0]: 203 ----> 348
[0]: 203 ----> 369
[0]: 204 ----> 402
[0]: 204 ----> 404
[0]: 204 ----> 424
[0]: 204 ----> 425
[0]: 204 ----> 474
[0]: 204 ----> 524
[0]: 205 ----> 297
[0]: 205 ----> 298
[0]: 205 ----> 353
[0]: 205 ----> 355
[0]: 205 ----> 491
[0]: 205 ----> 507
[0]: 206 ----> 506
[0]: 206 ----> 507
[0]: 206 ----> 516
[0]: 206 ----> 530
[0]: 206 ----> 532
[0]: 207 ----> 289
[0]: 207 ----> 291
[0]: 207 ----> 301
[0]: 207 ----> 370
[0]: 207 ----> 372
[0]: 207 ----> 381
[0]: 207 ----> 394
[0]: 207 ----> 451
[0]: 207 ----> 499
[0]: 208 ----> 293
[0]: 208 ----> 294
[0]: 208 ----> 356
[0]: 208 ----> 358
[0]: 208 ----> 497
[0]: 208 ----> 504
[0]: 209 ----> 504
[0]: 209 ----> 505
[0]: 209 ----> 517
[0]: 209 ----> 529
[0]: 209 ----> 531
[0]: 210 ----> 327
[0]: 210 ----> 329
[0]: 210 ----> 454
[0]: 210 ----> 455
[0]: 210 ----> 488
[0]: 210 ----> 503
[0]: 211 ----> 360
[0]: 211 ----> 362
[0]: 211 ----> 447
[0]: 211 ----> 448
[0]: 211 ----> 479
[0]: 211 ----> 508
[0]: 212 ----> 273
[0]: 212 ----> 274
[0]: 212 ----> 295
[0]: 212 ----> 430
[0]: 212 ----> 442
[0]: 212 ----> 458
[0]: 213 ----> 281
[0]: 213 ----> 282
[0]: 213 ----> 306
[0]: 213 ----> 383
[0]: 213 ----> 457
[0]: 213 ----> 464
[0]: 214 ----> 301
[0]: 214 ----> 302
[0]: 214 ----> 351
[0]: 214 ----> 352
[0]: 214 ----> 363
[0]: 214 ----> 365
[0]: 214 ----> 382
[0]: 215 ----> 275
[0]: 215 ----> 276
[0]: 215 ----> 303
[0]: 215 ----> 308
[0]: 215 ----> 309
[0]: 215 ----> 340
[0]: 215 ----> 444
[0]: 215 ----> 446
[0]: 216 ----> 314
[0]: 216 ----> 315
[0]: 216 ----> 333
[0]: 216 ----> 334
[0]: 216 ----> 347
[0]: 216 ----> 364
[0]: 216 ----> 365
[0]: 217 ----> 409
[0]: 217 ----> 411
[0]: 217 ----> 412
[0]: 217 ----> 415
[0]: 217 ----> 416
[0]: 218 ----> 419
[0]: 218 ----> 421
[0]: 218 ----> 423
[0]: 218 ----> 427
[0]: 218 ----> 428
[0]: 219 ----> 317
[0]: 219 ----> 318
[0]: 219 ----> 337
[0]: 219 ----> 342
[0]: 219 ----> 359
[0]: 220 ----> 319
[0]: 220 ----> 320
[0]: 220 ----> 344
[0]: 220 ----> 369
[0]: 220 ----> 373
[0]: 221 ----> 290
[0]: 221 ----> 291
[0]: 221 ----> 330
[0]: 221 ----> 331
[0]: 221 ----> 405
[0]: 222 ----> 270
[0]: 222 ----> 272
[0]: 222 ----> 371
[0]: 222 ----> 372
[0]: 222 ----> 393
[0]: 223 ----> 312
[0]: 223 ----> 313
[0]: 223 ----> 335
[0]: 223 ----> 422
[0]: 223 ----> 453
[0]: 223 ----> 472
[0]: 224 ----> 310
[0]: 224 ----> 311
[0]: 224 ----> 346
[0]: 224 ----> 413
[0]: 224 ----> 414
[0]: 224 ----> 418
[0]: 225 ----> 366
[0]: 225 ----> 367
[0]: 225 ----> 491
[0]: 225 ----> 492
[0]: 225 ----> 516
[0]: 225 ----> 538
[0]: 225 ----> 539
[0]: 226 ----> 379
[0]: 226 ----> 380
[0]: 226 ----> 496
[0]: 226 ----> 497
[0]: 226 ----> 517
[0]: 226 ----> 534
[0]: 226 ----> 535
[0]: 227 ----> 303
[0]: 227 ----> 304
[0]: 227 ----> 445
[0]: 227 ----> 451
[0]: 227 ----> 498
[0]: 228 ----> 375
[0]: 228 ----> 376
[0]: 228 ----> 383
[0]: 228 ----> 400
[0]: 228 ----> 425
[0]: 228 ----> 473
[0]: 228 ----> 486
[0]: 229 ----> 400
[0]: 229 ----> 401
[0]: 229 ----> 424
[0]: 229 ----> 449
[0]: 229 ----> 458
[0]: 229 ----> 475
[0]: 229 ----> 487
[0]: 230 ----> 354
[0]: 230 ----> 355
[0]: 230 ----> 384
[0]: 230 ----> 396
[0]: 230 ----> 397
[0]: 230 ----> 415
[0]: 230 ----> 495
[0]: 231 ----> 356
[0]: 231 ----> 357
[0]: 231 ----> 392
[0]: 231 ----> 398
[0]: 231 ----> 399
[0]: 231 ----> 428
[0]: 231 ----> 500
[0]: 232 ----> 410
[0]: 232 ----> 411
[0]: 232 ----> 429
[0]: 232 ----> 454
[0]: 232 ----> 489
[0]: 232 ----> 510
[0]: 232 ----> 518
[0]: 233 ----> 295
[0]: 233 ----> 296
[0]: 233 ----> 328
[0]: 233 ----> 329
[0]: 233 ----> 359
[0]: 233 ----> 431
[0]: 234 ----> 278
[0]: 234 ----> 279
[0]: 234 ----> 288
[0]: 234 ----> 409
[0]: 234 ----> 410
[0]: 234 ----> 455
[0]: 234 ----> 490
[0]: 235 ----> 285
[0]: 235 ----> 286
[0]: 235 ----> 300
[0]: 235 ----> 420
[0]: 235 ----> 421
[0]: 235 ----> 447
[0]: 235 ----> 493
[0]: 236 ----> 419
[0]: 236 ----> 420
[0]: 236 ----> 448
[0]: 236 ----> 452
[0]: 236 ----> 478
[0]: 236 ----> 513
[0]: 236 ----> 523
[0]: 237 ----> 353
[0]: 237 ----> 354
[0]: 237 ----> 433
[0]: 237 ----> 434
[0]: 237 ----> 492
[0]: 238 ----> 357
[0]: 238 ----> 358
[0]: 238 ----> 435
[0]: 238 ----> 436
[0]: 238 ----> 496
[0]: 239 ----> 305
[0]: 239 ----> 306
[0]: 239 ----> 360
[0]: 239 ----> 361
[0]: 239 ----> 373
[0]: 239 ----> 456
[0]: 240 ----> 323
[0]: 240 ----> 324
[0]: 240 ----> 367
[0]: 240 ----> 368
[0]: 240 ----> 530
[0]: 241 ----> 325
[0]: 241 ----> 326
[0]: 241 ----> 378
[0]: 241 ----> 379
[0]: 241 ----> 529
[0]: 242 ----> 407
[0]: 242 ----> 408
[0]: 242 ----> 453
[0]: 242 ----> 473
[0]: 242 ----> 474
[0]: 242 ----> 519
[0]: 242 ----> 528
[0]: 243 ----> 389
[0]: 243 ----> 390
[0]: 243 ----> 403
[0]: 243 ----> 404
[0]: 243 ----> 413
[0]: 243 ----> 475
[0]: 243 ----> 522
[0]: 244 ----> 327
[0]: 244 ----> 328
[0]: 244 ----> 337
[0]: 244 ----> 338
[0]: 244 ----> 387
[0]: 244 ----> 509
[0]: 245 ----> 402
[0]: 245 ----> 403
[0]: 245 ----> 414
[0]: 245 ----> 468
[0]: 245 ----> 469
[0]: 245 ----> 470
[0]: 246 ----> 320
[0]: 246 ----> 321
[0]: 246 ----> 347
[0]: 246 ----> 348
[0]: 246 ----> 349
[0]: 247 ----> 316
[0]: 247 ----> 317
[0]: 247 ----> 339
[0]: 247 ----> 340
[0]: 247 ----> 341
[0]: 248 ----> 343
[0]: 248 ----> 344
[0]: 248 ----> 361
[0]: 248 ----> 362
[0]: 248 ----> 388
[0]: 248 ----> 515
[0]: 249 ----> 363
[0]: 249 ----> 364
[0]: 249 ----> 377
[0]: 249 ----> 440
[0]: 249 ----> 441
[0]: 250 ----> 437
[0]: 250 ----> 438
[0]: 250 ----> 446
[0]: 250 ----> 466
[0]: 250 ----> 480
[0]: 251 ----> 484
[0]: 251 ----> 485
[0]: 251 ----> 493
[0]: 251 ----> 508
[0]: 251 ----> 515
[0]: 252 ----> 482
[0]: 252 ----> 483
[0]: 252 ----> 490
[0]: 252 ----> 503
[0]: 252 ----> 509
[0]: 253 ----> 381
[0]: 253 ----> 382
[0]: 253 ----> 426
[0]: 253 ----> 460
[0]: 253 ----> 461
[0]: 254 ----> 461
[0]: 254 ----> 462
[0]: 254 ----> 498
[0]: 254 ----> 499
[0]: 254 ----> 514
[0]: 255 ----> 282
[0]: 255 ----> 283
[0]: 255 ----> 330
[0]: 255 ----> 374
[0]: 255 ----> 375
[0]: 255 ----> 527
[0]: 256 ----> 289
[0]: 256 ----> 290
[0]: 256 ----> 302
[0]: 256 ----> 332
[0]: 256 ----> 333
[0]: 257 ----> 335
[0]: 257 ----> 336
[0]: 257 ----> 406
[0]: 257 ----> 407
[0]: 257 ----> 523
[0]: 258 ----> 345
[0]: 258 ----> 346
[0]: 258 ----> 390
[0]: 258 ----> 391
[0]: 258 ----> 518
[0]: 259 ----> 444
[0]: 259 ----> 445
[0]: 259 ----> 476
[0]: 259 ----> 477
[0]: 259 ----> 480
[0]: 259 ----> 514
[0]: 260 ----> 430
[0]: 260 ----> 431
[0]: 260 ----> 443
[0]: 260 ----> 488
[0]: 260 ----> 489
[0]: 260 ----> 511
[0]: 261 ----> 470
[0]: 261 ----> 471
[0]: 261 ----> 472
[0]: 261 ----> 524
[0]: 261 ----> 528
[0]: 262 ----> 370
[0]: 262 ----> 371
[0]: 262 ----> 405
[0]: 262 ----> 525
[0]: 262 ----> 526
[0]: 262 ----> 527
[0]: 263 ----> 456
[0]: 263 ----> 457
[0]: 263 ----> 463
[0]: 263 ----> 478
[0]: 263 ----> 479
[0]: 263 ----> 512
[0]: 264 ----> 442
[0]: 264 ----> 443
[0]: 264 ----> 487
[0]: 264 ----> 521
[0]: 264 ----> 522
[0]: 265 ----> 279
[0]: 265 ----> 280
[0]: 265 ----> 412
[0]: 265 ----> 494
[0]: 265 ----> 495
[0]: 266 ----> 284
[0]: 266 ----> 285
[0]: 266 ----> 423
[0]: 266 ----> 500
[0]: 266 ----> 501
[0]: 267 ----> 463
[0]: 267 ----> 464
[0]: 267 ----> 486
[0]: 267 ----> 519
[0]: 267 ----> 520
[0]: 268 ----> 270
[0]: 268 ----> 271
[0]: 268 ----> 273
[0]: 268 ----> 449
[0]: 268 ----> 450
[0]: 268 ----> 525
[0]: 269 ----> 276
[0]: 269 ----> 277
[0]: 269 ----> 304
[0]: 269 ----> 393
[0]: 269 ----> 394
[0]: 270 ----> 0
[0]: 270 ----> 160
[0]: 271 ----> 0
[0]: 271 ----> 1
[0]: 272 ----> 0
[0]: 272 ----> 103
[0]: 273 ----> 1
[0]: 273 ----> 97
[0]: 274 ----> 1
[0]: 274 ----> 9
[0]: 275 ----> 2
[0]: 275 ----> 28
[0]: 276 ----> 2
[0]: 276 ----> 13
[0]: 277 ----> 2
[0]: 277 ----> 103
[0]: 278 ----> 3
[0]: 278 ----> 6
[0]: 279 ----> 3
[0]: 279 ----> 68
[0]: 280 ----> 3
[0]: 280 ----> 126
[0]: 281 ----> 4
[0]: 281 ----> 14
[0]: 282 ----> 4
[0]: 282 ----> 50
[0]: 283 ----> 4
[0]: 283 ----> 24
[0]: 284 ----> 5
[0]: 284 ----> 128
[0]: 285 ----> 5
[0]: 285 ----> 76
[0]: 286 ----> 5
[0]: 286 ----> 11
[0]: 287 ----> 6
[0]: 287 ----> 11
[0]: 288 ----> 6
[0]: 288 ----> 119
[0]: 289 ----> 7
[0]: 289 ----> 12
[0]: 290 ----> 7
[0]: 290 ----> 70
[0]: 291 ----> 7
[0]: 291 ----> 65
[0]: 292 ----> 8
[0]: 292 ----> 17
[0]: 293 ----> 8
[0]: 293 ----> 58
[0]: 294 ----> 8
[0]: 294 ----> 129
[0]: 295 ----> 9
[0]: 295 ----> 81
[0]: 296 ----> 9
[0]: 296 ----> 39
[0]: 297 ----> 10
[0]: 297 ----> 130
[0]: 298 ----> 10
[0]: 298 ----> 51
[0]: 299 ----> 10
[0]: 299 ----> 16
[0]: 300 ----> 11
[0]: 300 ----> 121
[0]: 301 ----> 12
[0]: 301 ----> 49
[0]: 302 ----> 12
[0]: 302 ----> 63
[0]: 303 ----> 13
[0]: 303 ----> 87
[0]: 304 ----> 13
[0]: 304 ----> 91
[0]: 305 ----> 14
[0]: 305 ----> 45
[0]: 306 ----> 14
[0]: 306 ----> 96
[0]: 307 ----> 15
[0]: 307 ----> 18
[0]: 308 ----> 15
[0]: 308 ----> 88
[0]: 309 ----> 15
[0]: 309 ----> 29
[0]: 310 ----> 16
[0]: 310 ----> 32
[0]: 311 ----> 16
[0]: 311 ----> 72
[0]: 312 ----> 17
[0]: 312 ----> 74
[0]: 313 ----> 17
[0]: 313 ----> 26
[0]: 314 ----> 18
[0]: 314 ----> 34
[0]: 315 ----> 18
[0]: 315 ----> 93
[0]: 316 ----> 19
[0]: 316 ----> 52
[0]: 317 ----> 19
[0]: 317 ----> 30
[0]: 318 ----> 19
[0]: 318 ----> 27
[0]: 319 ----> 20
[0]: 319 ----> 31
[0]: 320 ----> 20
[0]: 320 ----> 43
[0]: 321 ----> 20
[0]: 321 ----> 55
[0]: 322 ----> 21
[0]: 322 ----> 22
[0]: 323 ----> 21
[0]: 323 ----> 176
[0]: 324 ----> 21
[0]: 324 ----> 171
[0]: 325 ----> 22
[0]: 325 ----> 169
[0]: 326 ----> 22
[0]: 326 ----> 175
[0]: 327 ----> 23
[0]: 327 ----> 132
[0]: 328 ----> 23
[0]: 328 ----> 38
[0]: 329 ----> 23
[0]: 329 ----> 133
[0]: 330 ----> 24
[0]: 330 ----> 162
[0]: 331 ----> 24
[0]: 331 ----> 70
[0]: 332 ----> 25
[0]: 332 ----> 70
[0]: 333 ----> 25
[0]: 333 ----> 63
[0]: 334 ----> 25
[0]: 334 ----> 33
[0]: 335 ----> 26
[0]: 335 ----> 94
[0]: 336 ----> 26
[0]: 336 ----> 150
[0]: 337 ----> 27
[0]: 337 ----> 38
[0]: 338 ----> 27
[0]: 338 ----> 53
[0]: 339 ----> 28
[0]: 339 ----> 30
[0]: 340 ----> 28
[0]: 340 ----> 29
[0]: 341 ----> 29
[0]: 341 ----> 52
[0]: 342 ----> 30
[0]: 342 ----> 39
[0]: 343 ----> 31
[0]: 343 ----> 56
[0]: 344 ----> 31
[0]: 344 ----> 54
[0]: 345 ----> 32
[0]: 345 ----> 142
[0]: 346 ----> 32
[0]: 346 ----> 75
[0]: 347 ----> 33
[0]: 347 ----> 34
[0]: 348 ----> 33
[0]: 348 ----> 43
[0]: 349 ----> 34
[0]: 349 ----> 55
[0]: 350 ----> 35
[0]: 350 ----> 74
[0]: 351 ----> 35
[0]: 351 ----> 47
[0]: 352 ----> 35
[0]: 352 ----> 78
[0]: 353 ----> 36
[0]: 353 ----> 120
[0]: 354 ----> 36
[0]: 354 ----> 107
[0]: 355 ----> 36
[0]: 355 ----> 51
[0]: 356 ----> 37
[0]: 356 ----> 58
[0]: 357 ----> 37
[0]: 357 ----> 108
[0]: 358 ----> 37
[0]: 358 ----> 123
[0]: 359 ----> 38
[0]: 359 ----> 39
[0]: 360 ----> 40
[0]: 360 ----> 141
[0]: 361 ----> 40
[0]: 361 ----> 54
[0]: 362 ----> 40
[0]: 362 ----> 138
[0]: 363 ----> 41
[0]: 363 ----> 47
[0]: 364 ----> 41
[0]: 364 ----> 93
[0]: 365 ----> 41
[0]: 365 ----> 63
[0]: 366 ----> 42
[0]: 366 ----> 177
[0]: 367 ----> 42
[0]: 367 ----> 167
[0]: 368 ----> 42
[0]: 368 ----> 176
[0]: 369 ----> 43
[0]: 369 ----> 45
[0]: 370 ----> 44
[0]: 370 ----> 65
[0]: 371 ----> 44
[0]: 371 ----> 160
[0]: 372 ----> 44
[0]: 372 ----> 59
[0]: 373 ----> 45
[0]: 373 ----> 54
[0]: 374 ----> 46
[0]: 374 ----> 154
[0]: 375 ----> 46
[0]: 375 ----> 50
[0]: 376 ----> 46
[0]: 376 ----> 62
[0]: 377 ----> 47
[0]: 377 ----> 102
[0]: 378 ----> 48
[0]: 378 ----> 175
[0]: 379 ----> 48
[0]: 379 ----> 166
[0]: 380 ----> 48
[0]: 380 ----> 174
[0]: 381 ----> 49
[0]: 381 ----> 149
[0]: 382 ----> 49
[0]: 382 ----> 78
[0]: 383 ----> 50
[0]: 383 ----> 116
[0]: 384 ----> 51
[0]: 384 ----> 71
[0]: 385 ----> 52
[0]: 385 ----> 55
[0]: 386 ----> 53
[0]: 386 ----> 56
[0]: 387 ----> 53
[0]: 387 ----> 143
[0]: 388 ----> 56
[0]: 388 ----> 146
[0]: 389 ----> 57
[0]: 389 ----> 147
[0]: 390 ----> 57
[0]: 390 ----> 75
[0]: 391 ----> 57
[0]: 391 ----> 157
[0]: 392 ----> 58
[0]: 392 ----> 79
[0]: 393 ----> 59
[0]: 393 ----> 103
[0]: 394 ----> 59
[0]: 394 ----> 91
[0]: 395 ----> 60
[0]: 395 ----> 61
[0]: 396 ----> 60
[0]: 396 ----> 122
[0]: 397 ----> 60
[0]: 397 ----> 107
[0]: 398 ----> 61
[0]: 398 ----> 108
[0]: 399 ----> 61
[0]: 399 ----> 125
[0]: 400 ----> 62
[0]: 400 ----> 77
[0]: 401 ----> 62
[0]: 401 ----> 90
[0]: 402 ----> 64
[0]: 402 ----> 151
[0]: 403 ----> 64
[0]: 403 ----> 69
[0]: 404 ----> 64
[0]: 404 ----> 110
[0]: 405 ----> 65
[0]: 405 ----> 162
[0]: 406 ----> 66
[0]: 406 ----> 159
[0]: 407 ----> 66
[0]: 407 ----> 94
[0]: 408 ----> 66
[0]: 408 ----> 144
[0]: 409 ----> 67
[0]: 409 ----> 68
[0]: 410 ----> 67
[0]: 410 ----> 95
[0]: 411 ----> 67
[0]: 411 ----> 80
[0]: 412 ----> 68
[0]: 412 ----> 163
[0]: 413 ----> 69
[0]: 413 ----> 75
[0]: 414 ----> 69
[0]: 414 ----> 137
[0]: 415 ----> 71
[0]: 415 ----> 163
[0]: 416 ----> 71
[0]: 416 ----> 80
[0]: 417 ----> 72
[0]: 417 ----> 111
[0]: 418 ----> 72
[0]: 418 ----> 137
[0]: 419 ----> 73
[0]: 419 ----> 92
[0]: 420 ----> 73
[0]: 420 ----> 89
[0]: 421 ----> 73
[0]: 421 ----> 76
[0]: 422 ----> 74
[0]: 422 ----> 106
[0]: 423 ----> 76
[0]: 423 ----> 164
[0]: 424 ----> 77
[0]: 424 ----> 110
[0]: 425 ----> 77
[0]: 425 ----> 109
[0]: 426 ----> 78
[0]: 426 ----> 98
[0]: 427 ----> 79
[0]: 427 ----> 92
[0]: 428 ----> 79
[0]: 428 ----> 164
[0]: 429 ----> 80
[0]: 429 ----> 142
[0]: 430 ----> 81
[0]: 430 ----> 86
[0]: 431 ----> 81
[0]: 431 ----> 133
[0]: 432 ----> 82
[0]: 432 ----> 83
[0]: 433 ----> 82
[0]: 433 ----> 107
[0]: 434 ----> 82
[0]: 434 ----> 179
[0]: 435 ----> 83
[0]: 435 ----> 173
[0]: 436 ----> 83
[0]: 436 ----> 108
[0]: 437 ----> 84
[0]: 437 ----> 101
[0]: 438 ----> 84
[0]: 438 ----> 88
[0]: 439 ----> 84
[0]: 439 ----> 85
[0]: 440 ----> 85
[0]: 440 ----> 93
[0]: 441 ----> 85
[0]: 441 ----> 102
[0]: 442 ----> 86
[0]: 442 ----> 117
[0]: 443 ----> 86
[0]: 443 ----> 145
[0]: 444 ----> 87
[0]: 444 ----> 113
[0]: 445 ----> 87
[0]: 445 ----> 156
[0]: 446 ----> 88
[0]: 446 ----> 113
[0]: 447 ----> 89
[0]: 447 ----> 131
[0]: 448 ----> 89
[0]: 448 ----> 112
[0]: 449 ----> 90
[0]: 449 ----> 97
[0]: 450 ----> 90
[0]: 450 ----> 153
[0]: 451 ----> 91
[0]: 451 ----> 124
[0]: 452 ----> 92
[0]: 452 ----> 150
[0]: 453 ----> 94
[0]: 453 ----> 158
[0]: 454 ----> 95
[0]: 454 ----> 118
[0]: 455 ----> 95
[0]: 455 ----> 127
[0]: 456 ----> 96
[0]: 456 ----> 141
[0]: 457 ----> 96
[0]: 457 ----> 100
[0]: 458 ----> 97
[0]: 458 ----> 117
[0]: 459 ----> 98
[0]: 459 ----> 104
[0]: 460 ----> 98
[0]: 460 ----> 99
[0]: 461 ----> 99
[0]: 461 ----> 149
[0]: 462 ----> 99
[0]: 462 ----> 136
[0]: 463 ----> 100
[0]: 463 ----> 155
[0]: 464 ----> 100
[0]: 464 ----> 116
[0]: 465 ----> 101
[0]: 465 ----> 170
[0]: 466 ----> 101
[0]: 466 ----> 165
[0]: 467 ----> 102
[0]: 467 ----> 168
[0]: 468 ----> 104
[0]: 468 ----> 137
[0]: 469 ----> 104
[0]: 469 ----> 105
[0]: 470 ----> 105
[0]: 470 ----> 151
[0]: 471 ----> 105
[0]: 471 ----> 106
[0]: 472 ----> 106
[0]: 472 ----> 158
[0]: 473 ----> 109
[0]: 473 ----> 148
[0]: 474 ----> 109
[0]: 474 ----> 161
[0]: 475 ----> 110
[0]: 475 ----> 152
[0]: 476 ----> 111
[0]: 476 ----> 136
[0]: 477 ----> 111
[0]: 477 ----> 165
[0]: 478 ----> 112
[0]: 478 ----> 135
[0]: 479 ----> 112
[0]: 479 ----> 141
[0]: 480 ----> 113
[0]: 480 ----> 165
[0]: 481 ----> 114
[0]: 481 ----> 115
[0]: 482 ----> 114
[0]: 482 ----> 143
[0]: 483 ----> 114
[0]: 483 ----> 119
[0]: 484 ----> 115
[0]: 484 ----> 121
[0]: 485 ----> 115
[0]: 485 ----> 146
[0]: 486 ----> 116
[0]: 486 ----> 148
[0]: 487 ----> 117
[0]: 487 ----> 152
[0]: 488 ----> 118
[0]: 488 ----> 133
[0]: 489 ----> 118
[0]: 489 ----> 134
[0]: 490 ----> 119
[0]: 490 ----> 127
[0]: 491 ----> 120
[0]: 491 ----> 139
[0]: 492 ----> 120
[0]: 492 ----> 179
[0]: 493 ----> 121
[0]: 493 ----> 131
[0]: 494 ----> 122
[0]: 494 ----> 126
[0]: 495 ----> 122
[0]: 495 ----> 163
[0]: 496 ----> 123
[0]: 496 ----> 173
[0]: 497 ----> 123
[0]: 497 ----> 140
[0]: 498 ----> 124
[0]: 498 ----> 156
[0]: 499 ----> 124
[0]: 499 ----> 149
[0]: 500 ----> 125
[0]: 500 ----> 164
[0]: 501 ----> 125
[0]: 501 ----> 128
[0]: 502 ----> 126
[0]: 502 ----> 128
[0]: 503 ----> 127
[0]: 503 ----> 132
[0]: 504 ----> 129
[0]: 504 ----> 140
[0]: 505 ----> 129
[0]: 505 ----> 168
[0]: 506 ----> 130
[0]: 506 ----> 170
[0]: 507 ----> 130
[0]: 507 ----> 139
[0]: 508 ----> 131
[0]: 508 ----> 138
[0]: 509 ----> 132
[0]: 509 ----> 143
[0]: 510 ----> 134
[0]: 510 ----> 157
[0]: 511 ----> 134
[0]: 511 ----> 145
[0]: 512 ----> 135
[0]: 512 ----> 155
[0]: 513 ----> 135
[0]: 513 ----> 159
[0]: 514 ----> 136
[0]: 514 ----> 156
[0]: 515 ----> 138
[0]: 515 ----> 146
[0]: 516 ----> 139
[0]: 516 ----> 167
[0]: 517 ----> 140
[0]: 517 ----> 166
[0]: 518 ----> 142
[0]: 518 ----> 157
[0]: 519 ----> 144
[0]: 519 ----> 148
[0]: 520 ----> 144
[0]: 520 ----> 155
[0]: 521 ----> 145
[0]: 521 ----> 147
[0]: 522 ----> 147
[0]: 522 ----> 152
[0]: 523 ----> 150
[0]: 523 ----> 159
[0]: 524 ----> 151
[0]: 524 ----> 161
[0]: 525 ----> 153
[0]: 525 ----> 160
[0]: 526 ----> 153
[0]: 526 ----> 154
[0]: 527 ----> 154
[0]: 527 ----> 162
[0]: 528 ----> 158
[0]: 528 ----> 161
[0]: 529 ----> 166
[0]: 529 ----> 169
[0]: 530 ----> 167
[0]: 530 ----> 171
[0]: 531 ----> 168
[0]: 531 ----> 169
[0]: 532 ----> 170
[0]: 532 ----> 171
[0]: 533 ----> 172
[0]: 533 ----> 178
[0]: 534 ----> 172
[0]: 534 ----> 174
[0]: 535 ----> 172
[0]: 535 ----> 173
[0]: 536 ----> 174
[0]: 536 ----> 177
[0]: 537 ----> 175
[0]: 537 ----> 176
[0]: 538 ----> 177
[0]: 538 ----> 178
[0]: 539 ----> 178
[0]: 539 ----> 179
Cones:
[0] Max cone size: 3
[0]: 0 <---- 270 (0)
[0]: 0 <---- 271 (0)
[0]: 0 <---- 272 (0)
[0]: 1 <---- 273 (0)
[0]: 1 <---- 274 (0)
[0]: 1 <---- 271 (-1)
[0]: 2 <---- 275 (0)
[0]: 2 <---- 276 (0)
[0]: 2 <---- 277 (0)
[0]: 3 <---- 278 (0)
[0]: 3 <---- 279 (0)
[0]: 3 <---- 280 (0)
[0]: 4 <---- 281 (0)
[0]: 4 <---- 282 (0)
[0]: 4 <---- 283 (0)
[0]: 5 <---- 284 (0)
[0]: 5 <---- 285 (0)
[0]: 5 <---- 286 (0)
[0]: 6 <---- 287 (0)
[0]: 6 <---- 288 (0)
[0]: 6 <---- 278 (-1)
[0]: 7 <---- 289 (0)
[0]: 7 <---- 290 (0)
[0]: 7 <---- 291 (0)
[0]: 8 <---- 292 (0)
[0]: 8 <---- 293 (0)
[0]: 8 <---- 294 (0)
[0]: 9 <---- 274 (-1)
[0]: 9 <---- 295 (0)
[0]: 9 <---- 296 (0)
[0]: 10 <---- 297 (0)
[0]: 10 <---- 298 (0)
[0]: 10 <---- 299 (0)
[0]: 11 <---- 287 (-1)
[0]: 11 <---- 286 (-1)
[0]: 11 <---- 300 (0)
[0]: 12 <---- 301 (0)
[0]: 12 <---- 302 (0)
[0]: 12 <---- 289 (-1)
[0]: 13 <---- 276 (-1)
[0]: 13 <---- 303 (0)
[0]: 13 <---- 304 (0)
[0]: 14 <---- 305 (0)
[0]: 14 <---- 306 (0)
[0]: 14 <---- 281 (-1)
[0]: 15 <---- 307 (0)
[0]: 15 <---- 308 (0)
[0]: 15 <---- 309 (0)
[0]: 16 <---- 299 (-1)
[0]: 16 <---- 310 (0)
[0]: 16 <---- 311 (0)
[0]: 17 <---- 312 (0)
[0]: 17 <---- 313 (0)
[0]: 17 <---- 292 (-1)
[0]: 18 <---- 307 (-1)
[0]: 18 <---- 314 (0)
[0]: 18 <---- 315 (0)
[0]: 19 <---- 316 (0)
[0]: 19 <---- 317 (0)
[0]: 19 <---- 318 (0)
[0]: 20 <---- 319 (0)
[0]: 20 <---- 320 (0)
[0]: 20 <---- 321 (0)
[0]: 21 <---- 322 (0)
[0]: 21 <---- 323 (0)
[0]: 21 <---- 324 (0)
[0]: 22 <---- 325 (0)
[0]: 22 <---- 326 (0)
[0]: 22 <---- 322 (-1)
[0]: 23 <---- 327 (0)
[0]: 23 <---- 328 (0)
[0]: 23 <---- 329 (0)
[0]: 24 <---- 283 (-1)
[0]: 24 <---- 330 (0)
[0]: 24 <---- 331 (0)
[0]: 25 <---- 332 (0)
[0]: 25 <---- 333 (0)
[0]: 25 <---- 334 (0)
[0]: 26 <---- 313 (-1)
[0]: 26 <---- 335 (0)
[0]: 26 <---- 336 (0)
[0]: 27 <---- 318 (-1)
[0]: 27 <---- 337 (0)
[0]: 27 <---- 338 (0)
[0]: 28 <---- 339 (0)
[0]: 28 <---- 340 (0)
[0]: 28 <---- 275 (-1)
[0]: 29 <---- 309 (-1)
[0]: 29 <---- 340 (-1)
[0]: 29 <---- 341 (0)
[0]: 30 <---- 342 (0)
[0]: 30 <---- 317 (-1)
[0]: 30 <---- 339 (-1)
[0]: 31 <---- 343 (0)
[0]: 31 <---- 344 (0)
[0]: 31 <---- 319 (-1)
[0]: 32 <---- 345 (0)
[0]: 32 <---- 346 (0)
[0]: 32 <---- 310 (-1)
[0]: 33 <---- 334 (-1)
[0]: 33 <---- 347 (0)
[0]: 33 <---- 348 (0)
[0]: 34 <---- 349 (0)
[0]: 34 <---- 347 (-1)
[0]: 34 <---- 314 (-1)
[0]: 35 <---- 350 (0)
[0]: 35 <---- 351 (0)
[0]: 35 <---- 352 (0)
[0]: 36 <---- 353 (0)
[0]: 36 <---- 354 (0)
[0]: 36 <---- 355 (0)
[0]: 37 <---- 356 (0)
[0]: 37 <---- 357 (0)
[0]: 37 <---- 358 (0)
[0]: 38 <---- 359 (0)
[0]: 38 <---- 328 (-1)
[0]: 38 <---- 337 (-1)
[0]: 39 <---- 296 (-1)
[0]: 39 <---- 359 (-1)
[0]: 39 <---- 342 (-1)
[0]: 40 <---- 360 (0)
[0]: 40 <---- 361 (0)
[0]: 40 <---- 362 (0)
[0]: 41 <---- 363 (0)
[0]: 41 <---- 364 (0)
[0]: 41 <---- 365 (0)
[0]: 42 <---- 366 (0)
[0]: 42 <---- 367 (0)
[0]: 42 <---- 368 (0)
[0]: 43 <---- 348 (-1)
[0]: 43 <---- 320 (-1)
[0]: 43 <---- 369 (0)
[0]: 44 <---- 370 (0)
[0]: 44 <---- 371 (0)
[0]: 44 <---- 372 (0)
[0]: 45 <---- 369 (-1)
[0]: 45 <---- 373 (0)
[0]: 45 <---- 305 (-1)
[0]: 46 <---- 374 (0)
[0]: 46 <---- 375 (0)
[0]: 46 <---- 376 (0)
[0]: 47 <---- 377 (0)
[0]: 47 <---- 363 (-1)
[0]: 47 <---- 351 (-1)
[0]: 48 <---- 378 (0)
[0]: 48 <---- 379 (0)
[0]: 48 <---- 380 (0)
[0]: 49 <---- 381 (0)
[0]: 49 <---- 382 (0)
[0]: 49 <---- 301 (-1)
[0]: 50 <---- 383 (0)
[0]: 50 <---- 375 (-1)
[0]: 50 <---- 282 (-1)
[0]: 51 <---- 298 (-1)
[0]: 51 <---- 355 (-1)
[0]: 51 <---- 384 (0)
[0]: 52 <---- 385 (0)
[0]: 52 <---- 341 (-1)
[0]: 52 <---- 316 (-1)
[0]: 53 <---- 386 (0)
[0]: 53 <---- 338 (-1)
[0]: 53 <---- 387 (0)
[0]: 54 <---- 344 (-1)
[0]: 54 <---- 361 (-1)
[0]: 54 <---- 373 (-1)
[0]: 55 <---- 385 (-1)
[0]: 55 <---- 321 (-1)
[0]: 55 <---- 349 (-1)
[0]: 56 <---- 386 (-1)
[0]: 56 <---- 388 (0)
[0]: 56 <---- 343 (-1)
[0]: 57 <---- 389 (0)
[0]: 57 <---- 390 (0)
[0]: 57 <---- 391 (0)
[0]: 58 <---- 392 (0)
[0]: 58 <---- 356 (-1)
[0]: 58 <---- 293 (-1)
[0]: 59 <---- 372 (-1)
[0]: 59 <---- 393 (0)
[0]: 59 <---- 394 (0)
[0]: 60 <---- 395 (0)
[0]: 60 <---- 396 (0)
[0]: 60 <---- 397 (0)
[0]: 61 <---- 395 (-1)
[0]: 61 <---- 398 (0)
[0]: 61 <---- 399 (0)
[0]: 62 <---- 376 (-1)
[0]: 62 <---- 400 (0)
[0]: 62 <---- 401 (0)
[0]: 63 <---- 365 (-1)
[0]: 63 <---- 333 (-1)
[0]: 63 <---- 302 (-1)
[0]: 64 <---- 402 (0)
[0]: 64 <---- 403 (0)
[0]: 64 <---- 404 (0)
[0]: 65 <---- 291 (-1)
[0]: 65 <---- 405 (0)
[0]: 65 <---- 370 (-1)
[0]: 66 <---- 406 (0)
[0]: 66 <---- 407 (0)
[0]: 66 <---- 408 (0)
[0]: 67 <---- 409 (0)
[0]: 67 <---- 410 (0)
[0]: 67 <---- 411 (0)
[0]: 68 <---- 412 (0)
[0]: 68 <---- 279 (-1)
[0]: 68 <---- 409 (-1)
[0]: 69 <---- 413 (0)
[0]: 69 <---- 403 (-1)
[0]: 69 <---- 414 (0)
[0]: 70 <---- 331 (-1)
[0]: 70 <---- 290 (-1)
[0]: 70 <---- 332 (-1)
[0]: 71 <---- 384 (-1)
[0]: 71 <---- 415 (0)
[0]: 71 <---- 416 (0)
[0]: 72 <---- 417 (0)
[0]: 72 <---- 311 (-1)
[0]: 72 <---- 418 (0)
[0]: 73 <---- 419 (0)
[0]: 73 <---- 420 (0)
[0]: 73 <---- 421 (0)
[0]: 74 <---- 350 (-1)
[0]: 74 <---- 422 (0)
[0]: 74 <---- 312 (-1)
[0]: 75 <---- 346 (-1)
[0]: 75 <---- 390 (-1)
[0]: 75 <---- 413 (-1)
[0]: 76 <---- 421 (-1)
[0]: 76 <---- 285 (-1)
[0]: 76 <---- 423 (0)
[0]: 77 <---- 424 (0)
[0]: 77 <---- 400 (-1)
[0]: 77 <---- 425 (0)
[0]: 78 <---- 352 (-1)
[0]: 78 <---- 382 (-1)
[0]: 78 <---- 426 (0)
[0]: 79 <---- 427 (0)
[0]: 79 <---- 428 (0)
[0]: 79 <---- 392 (-1)
[0]: 80 <---- 416 (-1)
[0]: 80 <---- 411 (-1)
[0]: 80 <---- 429 (0)
[0]: 81 <---- 430 (0)
[0]: 81 <---- 431 (0)
[0]: 81 <---- 295 (-1)
[0]: 82 <---- 432 (0)
[0]: 82 <---- 433 (0)
[0]: 82 <---- 434 (0)
[0]: 83 <---- 432 (-1)
[0]: 83 <---- 435 (0)
[0]: 83 <---- 436 (0)
[0]: 84 <---- 437 (0)
[0]: 84 <---- 438 (0)
[0]: 84 <---- 439 (0)
[0]: 85 <---- 439 (-1)
[0]: 85 <---- 440 (0)
[0]: 85 <---- 441 (0)
[0]: 86 <---- 442 (0)
[0]: 86 <---- 443 (0)
[0]: 86 <---- 430 (-1)
[0]: 87 <---- 444 (0)
[0]: 87 <---- 445 (0)
[0]: 87 <---- 303 (-1)
[0]: 88 <---- 438 (-1)
[0]: 88 <---- 446 (0)
[0]: 88 <---- 308 (-1)
[0]: 89 <---- 447 (0)
[0]: 89 <---- 420 (-1)
[0]: 89 <---- 448 (0)
[0]: 90 <---- 401 (-1)
[0]: 90 <---- 449 (0)
[0]: 90 <---- 450 (0)
[0]: 91 <---- 394 (-1)
[0]: 91 <---- 304 (-1)
[0]: 91 <---- 451 (0)
[0]: 92 <---- 452 (0)
[0]: 92 <---- 419 (-1)
[0]: 92 <---- 427 (-1)
[0]: 93 <---- 315 (-1)
[0]: 93 <---- 364 (-1)
[0]: 93 <---- 440 (-1)
[0]: 94 <---- 453 (0)
[0]: 94 <---- 407 (-1)
[0]: 94 <---- 335 (-1)
[0]: 95 <---- 454 (0)
[0]: 95 <---- 410 (-1)
[0]: 95 <---- 455 (0)
[0]: 96 <---- 306 (-1)
[0]: 96 <---- 456 (0)
[0]: 96 <---- 457 (0)
[0]: 97 <---- 273 (-1)
[0]: 97 <---- 449 (-1)
[0]: 97 <---- 458 (0)
[0]: 98 <---- 459 (0)
[0]: 98 <---- 426 (-1)
[0]: 98 <---- 460 (0)
[0]: 99 <---- 460 (-1)
[0]: 99 <---- 461 (0)
[0]: 99 <---- 462 (0)
[0]: 100 <---- 457 (-1)
[0]: 100 <---- 463 (0)
[0]: 100 <---- 464 (0)
[0]: 101 <---- 465 (0)
[0]: 101 <---- 466 (0)
[0]: 101 <---- 437 (-1)
[0]: 102 <---- 441 (-1)
[0]: 102 <---- 377 (-1)
[0]: 102 <---- 467 (0)
[0]: 103 <---- 277 (-1)
[0]: 103 <---- 393 (-1)
[0]: 103 <---- 272 (-1)
[0]: 104 <---- 459 (-1)
[0]: 104 <---- 468 (0)
[0]: 104 <---- 469 (0)
[0]: 105 <---- 469 (-1)
[0]: 105 <---- 470 (0)
[0]: 105 <---- 471 (0)
[0]: 106 <---- 471 (-1)
[0]: 106 <---- 472 (0)
[0]: 106 <---- 422 (-1)
[0]: 107 <---- 397 (-1)
[0]: 107 <---- 354 (-1)
[0]: 107 <---- 433 (-1)
[0]: 108 <---- 436 (-1)
[0]: 108 <---- 357 (-1)
[0]: 108 <---- 398 (-1)
[0]: 109 <---- 425 (-1)
[0]: 109 <---- 473 (0)
[0]: 109 <---- 474 (0)
[0]: 110 <---- 404 (-1)
[0]: 110 <---- 475 (0)
[0]: 110 <---- 424 (-1)
[0]: 111 <---- 417 (-1)
[0]: 111 <---- 476 (0)
[0]: 111 <---- 477 (0)
[0]: 112 <---- 448 (-1)
[0]: 112 <---- 478 (0)
[0]: 112 <---- 479 (0)
[0]: 113 <---- 446 (-1)
[0]: 113 <---- 480 (0)
[0]: 113 <---- 444 (-1)
[0]: 114 <---- 481 (0)
[0]: 114 <---- 482 (0)
[0]: 114 <---- 483 (0)
[0]: 115 <---- 481 (-1)
[0]: 115 <---- 484 (0)
[0]: 115 <---- 485 (0)
[0]: 116 <---- 464 (-1)
[0]: 116 <---- 486 (0)
[0]: 116 <---- 383 (-1)
[0]: 117 <---- 458 (-1)
[0]: 117 <---- 487 (0)
[0]: 117 <---- 442 (-1)
[0]: 118 <---- 488 (0)
[0]: 118 <---- 489 (0)
[0]: 118 <---- 454 (-1)
[0]: 119 <---- 483 (-1)
[0]: 119 <---- 490 (0)
[0]: 119 <---- 288 (-1)
[0]: 120 <---- 491 (0)
[0]: 120 <---- 492 (0)
[0]: 120 <---- 353 (-1)
[0]: 121 <---- 300 (-1)
[0]: 121 <---- 493 (0)
[0]: 121 <---- 484 (-1)
[0]: 122 <---- 494 (0)
[0]: 122 <---- 495 (0)
[0]: 122 <---- 396 (-1)
[0]: 123 <---- 358 (-1)
[0]: 123 <---- 496 (0)
[0]: 123 <---- 497 (0)
[0]: 124 <---- 451 (-1)
[0]: 124 <---- 498 (0)
[0]: 124 <---- 499 (0)
[0]: 125 <---- 399 (-1)
[0]: 125 <---- 500 (0)
[0]: 125 <---- 501 (0)
[0]: 126 <---- 502 (0)
[0]: 126 <---- 280 (-1)
[0]: 126 <---- 494 (-1)
[0]: 127 <---- 455 (-1)
[0]: 127 <---- 490 (-1)
[0]: 127 <---- 503 (0)
[0]: 128 <---- 502 (-1)
[0]: 128 <---- 501 (-1)
[0]: 128 <---- 284 (-1)
[0]: 129 <---- 294 (-1)
[0]: 129 <---- 504 (0)
[0]: 129 <---- 505 (0)
[0]: 130 <---- 506 (0)
[0]: 130 <---- 507 (0)
[0]: 130 <---- 297 (-1)
[0]: 131 <---- 508 (0)
[0]: 131 <---- 493 (-1)
[0]: 131 <---- 447 (-1)
[0]: 132 <---- 503 (-1)
[0]: 132 <---- 509 (0)
[0]: 132 <---- 327 (-1)
[0]: 133 <---- 329 (-1)
[0]: 133 <---- 431 (-1)
[0]: 133 <---- 488 (-1)
[0]: 134 <---- 510 (0)
[0]: 134 <---- 489 (-1)
[0]: 134 <---- 511 (0)
[0]: 135 <---- 512 (0)
[0]: 135 <---- 478 (-1)
[0]: 135 <---- 513 (0)
[0]: 136 <---- 462 (-1)
[0]: 136 <---- 514 (0)
[0]: 136 <---- 476 (-1)
[0]: 137 <---- 418 (-1)
[0]: 137 <---- 414 (-1)
[0]: 137 <---- 468 (-1)
[0]: 138 <---- 362 (-1)
[0]: 138 <---- 515 (0)
[0]: 138 <---- 508 (-1)
[0]: 139 <---- 507 (-1)
[0]: 139 <---- 516 (0)
[0]: 139 <---- 491 (-1)
[0]: 140 <---- 497 (-1)
[0]: 140 <---- 517 (0)
[0]: 140 <---- 504 (-1)
[0]: 141 <---- 479 (-1)
[0]: 141 <---- 456 (-1)
[0]: 141 <---- 360 (-1)
[0]: 142 <---- 429 (-1)
[0]: 142 <---- 518 (0)
[0]: 142 <---- 345 (-1)
[0]: 143 <---- 387 (-1)
[0]: 143 <---- 509 (-1)
[0]: 143 <---- 482 (-1)
[0]: 144 <---- 408 (-1)
[0]: 144 <---- 519 (0)
[0]: 144 <---- 520 (0)
[0]: 145 <---- 511 (-1)
[0]: 145 <---- 443 (-1)
[0]: 145 <---- 521 (0)
[0]: 146 <---- 485 (-1)
[0]: 146 <---- 515 (-1)
[0]: 146 <---- 388 (-1)
[0]: 147 <---- 521 (-1)
[0]: 147 <---- 522 (0)
[0]: 147 <---- 389 (-1)
[0]: 148 <---- 486 (-1)
[0]: 148 <---- 519 (-1)
[0]: 148 <---- 473 (-1)
[0]: 149 <---- 499 (-1)
[0]: 149 <---- 461 (-1)
[0]: 149 <---- 381 (-1)
[0]: 150 <---- 336 (-1)
[0]: 150 <---- 523 (0)
[0]: 150 <---- 452 (-1)
[0]: 151 <---- 524 (0)
[0]: 151 <---- 470 (-1)
[0]: 151 <---- 402 (-1)
[0]: 152 <---- 475 (-1)
[0]: 152 <---- 522 (-1)
[0]: 152 <---- 487 (-1)
[0]: 153 <---- 450 (-1)
[0]: 153 <---- 525 (0)
[0]: 153 <---- 526 (0)
[0]: 154 <---- 526 (-1)
[0]: 154 <---- 527 (0)
[0]: 154 <---- 374 (-1)
[0]: 155 <---- 520 (-1)
[0]: 155 <---- 463 (-1)
[0]: 155 <---- 512 (-1)
[0]: 156 <---- 445 (-1)
[0]: 156 <---- 514 (-1)
[0]: 156 <---- 498 (-1)
[0]: 157 <---- 391 (-1)
[0]: 157 <---- 518 (-1)
[0]: 157 <---- 510 (-1)
[0]: 158 <---- 472 (-1)
[0]: 158 <---- 528 (0)
[0]: 158 <---- 453 (-1)
[0]: 159 <---- 513 (-1)
[0]: 159 <---- 523 (-1)
[0]: 159 <---- 406 (-1)
[0]: 160 <---- 371 (-1)
[0]: 160 <---- 525 (-1)
[0]: 160 <---- 270 (-1)
[0]: 161 <---- 474 (-1)
[0]: 161 <---- 528 (-1)
[0]: 161 <---- 524 (-1)
[0]: 162 <---- 330 (-1)
[0]: 162 <---- 527 (-1)
[0]: 162 <---- 405 (-1)
[0]: 163 <---- 415 (-1)
[0]: 163 <---- 495 (-1)
[0]: 163 <---- 412 (-1)
[0]: 164 <---- 423 (-1)
[0]: 164 <---- 500 (-1)
[0]: 164 <---- 428 (-1)
[0]: 165 <---- 477 (-1)
[0]: 165 <---- 480 (-1)
[0]: 165 <---- 466 (-1)
[0]: 166 <---- 517 (-1)
[0]: 166 <---- 379 (-1)
[0]: 166 <---- 529 (0)
[0]: 167 <---- 530 (0)
[0]: 167 <---- 367 (-1)
[0]: 167 <---- 516 (-1)
[0]: 168 <---- 467 (-1)
[0]: 168 <---- 505 (-1)
[0]: 168 <---- 531 (0)
[0]: 169 <---- 531 (-1)
[0]: 169 <---- 529 (-1)
[0]: 169 <---- 325 (-1)
[0]: 170 <---- 532 (0)
[0]: 170 <---- 506 (-1)
[0]: 170 <---- 465 (-1)
[0]: 171 <---- 324 (-1)
[0]: 171 <---- 530 (-1)
[0]: 171 <---- 532 (-1)
[0]: 172 <---- 533 (0)
[0]: 172 <---- 534 (0)
[0]: 172 <---- 535 (0)
[0]: 173 <---- 535 (-1)
[0]: 173 <---- 496 (-1)
[0]: 173 <---- 435 (-1)
[0]: 174 <---- 536 (0)
[0]: 174 <---- 380 (-1)
[0]: 174 <---- 534 (-1)
[0]: 175 <---- 537 (0)
[0]: 175 <---- 326 (-1)
[0]: 175 <---- 378 (-1)
[0]: 176 <---- 537 (-1)
[0]: 176 <---- 368 (-1)
[0]: 176 <---- 323 (-1)
[0]: 177 <---- 536 (-1)
[0]: 177 <---- 538 (0)
[0]: 177 <---- 366 (-1)
[0]: 178 <---- 533 (-1)
[0]: 178 <---- 539 (0)
[0]: 178 <---- 538 (-1)
[0]: 179 <---- 434 (-1)
[0]: 179 <---- 492 (-1)
[0]: 179 <---- 539 (-1)
[0]: 270 <---- 222 (0)
[0]: 270 <---- 268 (0)
[0]: 271 <---- 268 (0)
[0]: 271 <---- 202 (0)
[0]: 272 <---- 202 (0)
[0]: 272 <---- 222 (0)
[0]: 273 <---- 268 (0)
[0]: 273 <---- 212 (0)
[0]: 274 <---- 212 (0)
[0]: 274 <---- 202 (0)
[0]: 275 <---- 202 (0)
[0]: 275 <---- 215 (0)
[0]: 276 <---- 215 (0)
[0]: 276 <---- 269 (0)
[0]: 277 <---- 269 (0)
[0]: 277 <---- 202 (0)
[0]: 278 <---- 190 (0)
[0]: 278 <---- 234 (0)
[0]: 279 <---- 234 (0)
[0]: 279 <---- 265 (0)
[0]: 280 <---- 265 (0)
[0]: 280 <---- 190 (0)
[0]: 281 <---- 203 (0)
[0]: 281 <---- 213 (0)
[0]: 282 <---- 213 (0)
[0]: 282 <---- 255 (0)
[0]: 283 <---- 255 (0)
[0]: 283 <---- 203 (0)
[0]: 284 <---- 190 (0)
[0]: 284 <---- 266 (0)
[0]: 285 <---- 266 (0)
[0]: 285 <---- 235 (0)
[0]: 286 <---- 235 (0)
[0]: 286 <---- 190 (0)
[0]: 287 <---- 190 (0)
[0]: 287 <---- 189 (0)
[0]: 288 <---- 189 (0)
[0]: 288 <---- 234 (0)
[0]: 289 <---- 207 (0)
[0]: 289 <---- 256 (0)
[0]: 290 <---- 256 (0)
[0]: 290 <---- 221 (0)
[0]: 291 <---- 221 (0)
[0]: 291 <---- 207 (0)
[0]: 292 <---- 184 (0)
[0]: 292 <---- 201 (0)
[0]: 293 <---- 201 (0)
[0]: 293 <---- 208 (0)
[0]: 294 <---- 208 (0)
[0]: 294 <---- 184 (0)
[0]: 295 <---- 212 (0)
[0]: 295 <---- 233 (0)
[0]: 296 <---- 233 (0)
[0]: 296 <---- 202 (0)
[0]: 297 <---- 181 (0)
[0]: 297 <---- 205 (0)
[0]: 298 <---- 205 (0)
[0]: 298 <---- 200 (0)
[0]: 299 <---- 200 (0)
[0]: 299 <---- 181 (0)
[0]: 300 <---- 235 (0)
[0]: 300 <---- 189 (0)
[0]: 301 <---- 207 (0)
[0]: 301 <---- 214 (0)
[0]: 302 <---- 214 (0)
[0]: 302 <---- 256 (0)
[0]: 303 <---- 215 (0)
[0]: 303 <---- 227 (0)
[0]: 304 <---- 227 (0)
[0]: 304 <---- 269 (0)
[0]: 305 <---- 203 (0)
[0]: 305 <---- 239 (0)
[0]: 306 <---- 239 (0)
[0]: 306 <---- 213 (0)
[0]: 307 <---- 186 (0)
[0]: 307 <---- 185 (0)
[0]: 308 <---- 185 (0)
[0]: 308 <---- 215 (0)
[0]: 309 <---- 215 (0)
[0]: 309 <---- 186 (0)
[0]: 310 <---- 200 (0)
[0]: 310 <---- 224 (0)
[0]: 311 <---- 224 (0)
[0]: 311 <---- 181 (0)
[0]: 312 <---- 184 (0)
[0]: 312 <---- 223 (0)
[0]: 313 <---- 223 (0)
[0]: 313 <---- 201 (0)
[0]: 314 <---- 186 (0)
[0]: 314 <---- 216 (0)
[0]: 315 <---- 216 (0)
[0]: 315 <---- 185 (0)
[0]: 316 <---- 187 (0)
[0]: 316 <---- 247 (0)
[0]: 317 <---- 247 (0)
[0]: 317 <---- 219 (0)
[0]: 318 <---- 219 (0)
[0]: 318 <---- 187 (0)
[0]: 319 <---- 187 (0)
[0]: 319 <---- 220 (0)
[0]: 320 <---- 220 (0)
[0]: 320 <---- 246 (0)
[0]: 321 <---- 246 (0)
[0]: 321 <---- 187 (0)
[0]: 322 <---- 180 (0)
[0]: 322 <---- 196 (0)
[0]: 323 <---- 196 (0)
[0]: 323 <---- 240 (0)
[0]: 324 <---- 240 (0)
[0]: 324 <---- 180 (0)
[0]: 325 <---- 180 (0)
[0]: 325 <---- 241 (0)
[0]: 326 <---- 241 (0)
[0]: 326 <---- 196 (0)
[0]: 327 <---- 210 (0)
[0]: 327 <---- 244 (0)
[0]: 328 <---- 244 (0)
[0]: 328 <---- 233 (0)
[0]: 329 <---- 233 (0)
[0]: 329 <---- 210 (0)
[0]: 330 <---- 255 (0)
[0]: 330 <---- 221 (0)
[0]: 331 <---- 221 (0)
[0]: 331 <---- 203 (0)
[0]: 332 <---- 203 (0)
[0]: 332 <---- 256 (0)
[0]: 333 <---- 256 (0)
[0]: 333 <---- 216 (0)
[0]: 334 <---- 216 (0)
[0]: 334 <---- 203 (0)
[0]: 335 <---- 223 (0)
[0]: 335 <---- 257 (0)
[0]: 336 <---- 257 (0)
[0]: 336 <---- 201 (0)
[0]: 337 <---- 219 (0)
[0]: 337 <---- 244 (0)
[0]: 338 <---- 244 (0)
[0]: 338 <---- 187 (0)
[0]: 339 <---- 202 (0)
[0]: 339 <---- 247 (0)
[0]: 340 <---- 247 (0)
[0]: 340 <---- 215 (0)
[0]: 341 <---- 247 (0)
[0]: 341 <---- 186 (0)
[0]: 342 <---- 202 (0)
[0]: 342 <---- 219 (0)
[0]: 343 <---- 187 (0)
[0]: 343 <---- 248 (0)
[0]: 344 <---- 248 (0)
[0]: 344 <---- 220 (0)
[0]: 345 <---- 200 (0)
[0]: 345 <---- 258 (0)
[0]: 346 <---- 258 (0)
[0]: 346 <---- 224 (0)
[0]: 347 <---- 216 (0)
[0]: 347 <---- 246 (0)
[0]: 348 <---- 246 (0)
[0]: 348 <---- 203 (0)
[0]: 349 <---- 186 (0)
[0]: 349 <---- 246 (0)
[0]: 350 <---- 183 (0)
[0]: 350 <---- 184 (0)
[0]: 351 <---- 184 (0)
[0]: 351 <---- 214 (0)
[0]: 352 <---- 214 (0)
[0]: 352 <---- 183 (0)
[0]: 353 <---- 205 (0)
[0]: 353 <---- 237 (0)
[0]: 354 <---- 237 (0)
[0]: 354 <---- 230 (0)
[0]: 355 <---- 230 (0)
[0]: 355 <---- 205 (0)
[0]: 356 <---- 208 (0)
[0]: 356 <---- 231 (0)
[0]: 357 <---- 231 (0)
[0]: 357 <---- 238 (0)
[0]: 358 <---- 238 (0)
[0]: 358 <---- 208 (0)
[0]: 359 <---- 219 (0)
[0]: 359 <---- 233 (0)
[0]: 360 <---- 211 (0)
[0]: 360 <---- 239 (0)
[0]: 361 <---- 239 (0)
[0]: 361 <---- 248 (0)
[0]: 362 <---- 248 (0)
[0]: 362 <---- 211 (0)
[0]: 363 <---- 214 (0)
[0]: 363 <---- 249 (0)
[0]: 364 <---- 249 (0)
[0]: 364 <---- 216 (0)
[0]: 365 <---- 216 (0)
[0]: 365 <---- 214 (0)
[0]: 366 <---- 195 (0)
[0]: 366 <---- 225 (0)
[0]: 367 <---- 225 (0)
[0]: 367 <---- 240 (0)
[0]: 368 <---- 240 (0)
[0]: 368 <---- 195 (0)
[0]: 369 <---- 220 (0)
[0]: 369 <---- 203 (0)
[0]: 370 <---- 207 (0)
[0]: 370 <---- 262 (0)
[0]: 371 <---- 262 (0)
[0]: 371 <---- 222 (0)
[0]: 372 <---- 222 (0)
[0]: 372 <---- 207 (0)
[0]: 373 <---- 220 (0)
[0]: 373 <---- 239 (0)
[0]: 374 <---- 197 (0)
[0]: 374 <---- 255 (0)
[0]: 375 <---- 255 (0)
[0]: 375 <---- 228 (0)
[0]: 376 <---- 228 (0)
[0]: 376 <---- 197 (0)
[0]: 377 <---- 184 (0)
[0]: 377 <---- 249 (0)
[0]: 378 <---- 195 (0)
[0]: 378 <---- 241 (0)
[0]: 379 <---- 241 (0)
[0]: 379 <---- 226 (0)
[0]: 380 <---- 226 (0)
[0]: 380 <---- 195 (0)
[0]: 381 <---- 207 (0)
[0]: 381 <---- 253 (0)
[0]: 382 <---- 253 (0)
[0]: 382 <---- 214 (0)
[0]: 383 <---- 213 (0)
[0]: 383 <---- 228 (0)
[0]: 384 <---- 230 (0)
[0]: 384 <---- 200 (0)
[0]: 385 <---- 187 (0)
[0]: 385 <---- 186 (0)
[0]: 386 <---- 188 (0)
[0]: 386 <---- 187 (0)
[0]: 387 <---- 244 (0)
[0]: 387 <---- 188 (0)
[0]: 388 <---- 188 (0)
[0]: 388 <---- 248 (0)
[0]: 389 <---- 198 (0)
[0]: 389 <---- 243 (0)
[0]: 390 <---- 243 (0)
[0]: 390 <---- 258 (0)
[0]: 391 <---- 258 (0)
[0]: 391 <---- 198 (0)
[0]: 392 <---- 201 (0)
[0]: 392 <---- 231 (0)
[0]: 393 <---- 222 (0)
[0]: 393 <---- 269 (0)
[0]: 394 <---- 269 (0)
[0]: 394 <---- 207 (0)
[0]: 395 <---- 192 (0)
[0]: 395 <---- 191 (0)
[0]: 396 <---- 191 (0)
[0]: 396 <---- 230 (0)
[0]: 397 <---- 230 (0)
[0]: 397 <---- 192 (0)
[0]: 398 <---- 192 (0)
[0]: 398 <---- 231 (0)
[0]: 399 <---- 231 (0)
[0]: 399 <---- 191 (0)
[0]: 400 <---- 228 (0)
[0]: 400 <---- 229 (0)
[0]: 401 <---- 229 (0)
[0]: 401 <---- 197 (0)
[0]: 402 <---- 204 (0)
[0]: 402 <---- 245 (0)
[0]: 403 <---- 245 (0)
[0]: 403 <---- 243 (0)
[0]: 404 <---- 243 (0)
[0]: 404 <---- 204 (0)
[0]: 405 <---- 221 (0)
[0]: 405 <---- 262 (0)
[0]: 406 <---- 199 (0)
[0]: 406 <---- 257 (0)
[0]: 407 <---- 257 (0)
[0]: 407 <---- 242 (0)
[0]: 408 <---- 242 (0)
[0]: 408 <---- 199 (0)
[0]: 409 <---- 217 (0)
[0]: 409 <---- 234 (0)
[0]: 410 <---- 234 (0)
[0]: 410 <---- 232 (0)
[0]: 411 <---- 232 (0)
[0]: 411 <---- 217 (0)
[0]: 412 <---- 217 (0)
[0]: 412 <---- 265 (0)
[0]: 413 <---- 224 (0)
[0]: 413 <---- 243 (0)
[0]: 414 <---- 245 (0)
[0]: 414 <---- 224 (0)
[0]: 415 <---- 230 (0)
[0]: 415 <---- 217 (0)
[0]: 416 <---- 217 (0)
[0]: 416 <---- 200 (0)
[0]: 417 <---- 182 (0)
[0]: 417 <---- 181 (0)
[0]: 418 <---- 224 (0)
[0]: 418 <---- 182 (0)
[0]: 419 <---- 218 (0)
[0]: 419 <---- 236 (0)
[0]: 420 <---- 236 (0)
[0]: 420 <---- 235 (0)
[0]: 421 <---- 235 (0)
[0]: 421 <---- 218 (0)
[0]: 422 <---- 183 (0)
[0]: 422 <---- 223 (0)
[0]: 423 <---- 266 (0)
[0]: 423 <---- 218 (0)
[0]: 424 <---- 204 (0)
[0]: 424 <---- 229 (0)
[0]: 425 <---- 228 (0)
[0]: 425 <---- 204 (0)
[0]: 426 <---- 253 (0)
[0]: 426 <---- 183 (0)
[0]: 427 <---- 201 (0)
[0]: 427 <---- 218 (0)
[0]: 428 <---- 218 (0)
[0]: 428 <---- 231 (0)
[0]: 429 <---- 232 (0)
[0]: 429 <---- 200 (0)
[0]: 430 <---- 212 (0)
[0]: 430 <---- 260 (0)
[0]: 431 <---- 260 (0)
[0]: 431 <---- 233 (0)
[0]: 432 <---- 193 (0)
[0]: 432 <---- 192 (0)
[0]: 433 <---- 192 (0)
[0]: 433 <---- 237 (0)
[0]: 434 <---- 237 (0)
[0]: 434 <---- 193 (0)
[0]: 435 <---- 193 (0)
[0]: 435 <---- 238 (0)
[0]: 436 <---- 238 (0)
[0]: 436 <---- 192 (0)
[0]: 437 <---- 180 (0)
[0]: 437 <---- 250 (0)
[0]: 438 <---- 250 (0)
[0]: 438 <---- 185 (0)
[0]: 439 <---- 185 (0)
[0]: 439 <---- 180 (0)
[0]: 440 <---- 185 (0)
[0]: 440 <---- 249 (0)
[0]: 441 <---- 249 (0)
[0]: 441 <---- 180 (0)
[0]: 442 <---- 212 (0)
[0]: 442 <---- 264 (0)
[0]: 443 <---- 264 (0)
[0]: 443 <---- 260 (0)
[0]: 444 <---- 215 (0)
[0]: 444 <---- 259 (0)
[0]: 445 <---- 259 (0)
[0]: 445 <---- 227 (0)
[0]: 446 <---- 250 (0)
[0]: 446 <---- 215 (0)
[0]: 447 <---- 211 (0)
[0]: 447 <---- 235 (0)
[0]: 448 <---- 236 (0)
[0]: 448 <---- 211 (0)
[0]: 449 <---- 229 (0)
[0]: 449 <---- 268 (0)
[0]: 450 <---- 268 (0)
[0]: 450 <---- 197 (0)
[0]: 451 <---- 227 (0)
[0]: 451 <---- 207 (0)
[0]: 452 <---- 201 (0)
[0]: 452 <---- 236 (0)
[0]: 453 <---- 223 (0)
[0]: 453 <---- 242 (0)
[0]: 454 <---- 210 (0)
[0]: 454 <---- 232 (0)
[0]: 455 <---- 234 (0)
[0]: 455 <---- 210 (0)
[0]: 456 <---- 239 (0)
[0]: 456 <---- 263 (0)
[0]: 457 <---- 263 (0)
[0]: 457 <---- 213 (0)
[0]: 458 <---- 229 (0)
[0]: 458 <---- 212 (0)
[0]: 459 <---- 182 (0)
[0]: 459 <---- 183 (0)
[0]: 460 <---- 253 (0)
[0]: 460 <---- 182 (0)
[0]: 461 <---- 253 (0)
[0]: 461 <---- 254 (0)
[0]: 462 <---- 254 (0)
[0]: 462 <---- 182 (0)
[0]: 463 <---- 263 (0)
[0]: 463 <---- 267 (0)
[0]: 464 <---- 267 (0)
[0]: 464 <---- 213 (0)
[0]: 465 <---- 180 (0)
[0]: 465 <---- 181 (0)
[0]: 466 <---- 181 (0)
[0]: 466 <---- 250 (0)
[0]: 467 <---- 184 (0)
[0]: 467 <---- 180 (0)
[0]: 468 <---- 182 (0)
[0]: 468 <---- 245 (0)
[0]: 469 <---- 245 (0)
[0]: 469 <---- 183 (0)
[0]: 470 <---- 245 (0)
[0]: 470 <---- 261 (0)
[0]: 471 <---- 261 (0)
[0]: 471 <---- 183 (0)
[0]: 472 <---- 261 (0)
[0]: 472 <---- 223 (0)
[0]: 473 <---- 228 (0)
[0]: 473 <---- 242 (0)
[0]: 474 <---- 242 (0)
[0]: 474 <---- 204 (0)
[0]: 475 <---- 243 (0)
[0]: 475 <---- 229 (0)
[0]: 476 <---- 182 (0)
[0]: 476 <---- 259 (0)
[0]: 477 <---- 259 (0)
[0]: 477 <---- 181 (0)
[0]: 478 <---- 236 (0)
[0]: 478 <---- 263 (0)
[0]: 479 <---- 263 (0)
[0]: 479 <---- 211 (0)
[0]: 480 <---- 250 (0)
[0]: 480 <---- 259 (0)
[0]: 481 <---- 189 (0)
[0]: 481 <---- 188 (0)
[0]: 482 <---- 188 (0)
[0]: 482 <---- 252 (0)
[0]: 483 <---- 252 (0)
[0]: 483 <---- 189 (0)
[0]: 484 <---- 189 (0)
[0]: 484 <---- 251 (0)
[0]: 485 <---- 251 (0)
[0]: 485 <---- 188 (0)
[0]: 486 <---- 267 (0)
[0]: 486 <---- 228 (0)
[0]: 487 <---- 229 (0)
[0]: 487 <---- 264 (0)
[0]: 488 <---- 210 (0)
[0]: 488 <---- 260 (0)
[0]: 489 <---- 260 (0)
[0]: 489 <---- 232 (0)
[0]: 490 <---- 252 (0)
[0]: 490 <---- 234 (0)
[0]: 491 <---- 205 (0)
[0]: 491 <---- 225 (0)
[0]: 492 <---- 225 (0)
[0]: 492 <---- 237 (0)
[0]: 493 <---- 235 (0)
[0]: 493 <---- 251 (0)
[0]: 494 <---- 191 (0)
[0]: 494 <---- 265 (0)
[0]: 495 <---- 265 (0)
[0]: 495 <---- 230 (0)
[0]: 496 <---- 238 (0)
[0]: 496 <---- 226 (0)
[0]: 497 <---- 226 (0)
[0]: 497 <---- 208 (0)
[0]: 498 <---- 227 (0)
[0]: 498 <---- 254 (0)
[0]: 499 <---- 254 (0)
[0]: 499 <---- 207 (0)
[0]: 500 <---- 231 (0)
[0]: 500 <---- 266 (0)
[0]: 501 <---- 266 (0)
[0]: 501 <---- 191 (0)
[0]: 502 <---- 191 (0)
[0]: 502 <---- 190 (0)
[0]: 503 <---- 252 (0)
[0]: 503 <---- 210 (0)
[0]: 504 <---- 208 (0)
[0]: 504 <---- 209 (0)
[0]: 505 <---- 209 (0)
[0]: 505 <---- 184 (0)
[0]: 506 <---- 181 (0)
[0]: 506 <---- 206 (0)
[0]: 507 <---- 206 (0)
[0]: 507 <---- 205 (0)
[0]: 508 <---- 211 (0)
[0]: 508 <---- 251 (0)
[0]: 509 <---- 252 (0)
[0]: 509 <---- 244 (0)
[0]: 510 <---- 198 (0)
[0]: 510 <---- 232 (0)
[0]: 511 <---- 260 (0)
[0]: 511 <---- 198 (0)
[0]: 512 <---- 199 (0)
[0]: 512 <---- 263 (0)
[0]: 513 <---- 236 (0)
[0]: 513 <---- 199 (0)
[0]: 514 <---- 254 (0)
[0]: 514 <---- 259 (0)
[0]: 515 <---- 248 (0)
[0]: 515 <---- 251 (0)
[0]: 516 <---- 206 (0)
[0]: 516 <---- 225 (0)
[0]: 517 <---- 226 (0)
[0]: 517 <---- 209 (0)
[0]: 518 <---- 232 (0)
[0]: 518 <---- 258 (0)
[0]: 519 <---- 242 (0)
[0]: 519 <---- 267 (0)
[0]: 520 <---- 267 (0)
[0]: 520 <---- 199 (0)
[0]: 521 <---- 264 (0)
[0]: 521 <---- 198 (0)
[0]: 522 <---- 264 (0)
[0]: 522 <---- 243 (0)
[0]: 523 <---- 257 (0)
[0]: 523 <---- 236 (0)
[0]: 524 <---- 204 (0)
[0]: 524 <---- 261 (0)
[0]: 525 <---- 268 (0)
[0]: 525 <---- 262 (0)
[0]: 526 <---- 262 (0)
[0]: 526 <---- 197 (0)
[0]: 527 <---- 262 (0)
[0]: 527 <---- 255 (0)
[0]: 528 <---- 261 (0)
[0]: 528 <---- 242 (0)
[0]: 529 <---- 241 (0)
[0]: 529 <---- 209 (0)
[0]: 530 <---- 206 (0)
[0]: 530 <---- 240 (0)
[0]: 531 <---- 209 (0)
[0]: 531 <---- 180 (0)
[0]: 532 <---- 180 (0)
[0]: 532 <---- 206 (0)
[0]: 533 <---- 193 (0)
[0]: 533 <---- 194 (0)
[0]: 534 <---- 194 (0)
[0]: 534 <---- 226 (0)
[0]: 535 <---- 226 (0)
[0]: 535 <---- 193 (0)
[0]: 536 <---- 194 (0)
[0]: 536 <---- 195 (0)
[0]: 537 <---- 195 (0)
[0]: 537 <---- 196 (0)
[0]: 538 <---- 194 (0)
[0]: 538 <---- 225 (0)
[0]: 539 <---- 193 (0)
[0]: 539 <---- 225 (0)
coordinates with 1 fields
  field 0 with 2 components
Process 0:
  (   3) dim  6 offset   0 10. 2.7279 9.24325 3.11049 9.49757 2.43592
  (   5) dim  6 offset   6 0. 2.7279 0.498993 2.43228 0.749444 3.10311
  (   6) dim  6 offset  12 10. 2.7279 10. 3.47181 9.24325 3.11049
  (   8) dim  6 offset  18 2. 0. 1.72534 1.70268 1.0554 0.962318
  (  10) dim  6 offset  24 8. 0. 8.93859 0.962318 8.26894 1.70967
  (  11) dim  6 offset  30 0. 3.47181 0. 2.7279 0.749444 3.10311
  (  15) dim  6 offset  36 10. 6.6856 10. 8.19642 8.22177 7.35767
  (  16) dim  6 offset  42 8. 0. 8.26894 1.70967 6.86846 1.33806
  (  17) dim  6 offset  48 2. 0. 3.06071 1.41723 1.72534 1.70268
  (  18) dim  6 offset  54 0. 8.19642 0. 6.6856 1.55009 7.44101
  (  19) dim  6 offset  60 10. 5.42002 8.87531 6.3037 8.59882 5.34793
  (  20) dim  6 offset  66 0. 5.42002 1.37673 5.37229 1.10021 6.34187
  (  21) dim  6 offset  72 10. 0. 10. 0.215307 9.74585 0.300165
  (  22) dim  6 offset  78 0. 0. 0.253702 0.300165 0. 0.215307
  (  27) dim  6 offset  84 10. 5.42002 8.59882 5.34793 9.1193 4.58447
  (  29) dim  6 offset  90 10. 6.6856 8.22177 7.35767 8.87531 6.3037
  (  31) dim  6 offset  96 0. 5.42002 0.87089 4.57784 1.37673 5.37229
  (  34) dim  6 offset 102 0. 6.6856 1.10021 6.34187 1.55009 7.44101
  (  35) dim  6 offset 108 4. 10. 2. 10. 3.12585 8.26215
  (  42) dim  6 offset 114 10. 0.472336 9.59857 0.705528 9.74585 0.300165
  (  47) dim  6 offset 120 2. 10. 1.33519 8.77992 3.12585 8.26215
  (  48) dim  6 offset 126 0. 0.472336 0.253702 0.300165 0.400245 0.705528
  (  52) dim  6 offset 132 10. 5.42002 10. 6.6856 8.87531 6.3037
  (  53) dim  6 offset 138 10. 4.35987 10. 5.42002 9.1193 4.58447
  (  55) dim  6 offset 144 0. 6.6856 0. 5.42002 1.10021 6.34187
  (  56) dim  6 offset 150 0. 5.42002 0. 4.35987 0.87089 4.57784
  (  60) dim  6 offset 156 10. 1.58274 10. 2.10474 9.32498 1.79705
  (  61) dim  6 offset 162 0. 2.10474 0. 1.58274 0.671712 1.79482
  (  72) dim  6 offset 168 6. 0. 8. 0. 6.86846 1.33806
  (  74) dim  6 offset 174 2. 0. 4. 0. 3.06071 1.41723
  (  78) dim  6 offset 180 4. 10. 3.12585 8.26215 4.7186 8.78684
  (  82) dim  6 offset 186 10. 1.14546 10. 1.58274 9.57243 1.23862
  (  83) dim  6 offset 192 0. 1.58274 0. 1.14546 0.425471 1.23817
  (  84) dim  6 offset 198 10. 10. 8.73903 8.80882 10. 8.19642
  (  85) dim  6 offset 204 0. 10. 0. 8.19642 1.33519 8.77992
  (  88) dim  6 offset 210 10. 8.19642 8.73903 8.80882 8.22177 7.35767
  (  93) dim  6 offset 216 0. 8.19642 1.55009 7.44101 1.33519 8.77992
  (  98) dim  6 offset 222 6. 10. 4. 10. 4.7186 8.78684
  (  99) dim  6 offset 228 6. 10. 4.7186 8.78684 5.9586 8.6351
  ( 101) dim  6 offset 234 10. 10. 8. 10. 8.73903 8.80882
  ( 102) dim  6 offset 240 0. 10. 1.33519 8.77992 2. 10.
  ( 104) dim  6 offset 246 4. 0. 6. 0. 5.27874 1.24443
  ( 105) dim  6 offset 252 4. 0. 5.27874 1.24443 4.18732 1.60954
  ( 106) dim  6 offset 258 4. 0. 4.18732 1.60954 3.06071 1.41723
  ( 107) dim  6 offset 264 10. 1.58274 9.32498 1.79705 9.57243 1.23862
  ( 108) dim  6 offset 270 0. 1.58274 0.425471 1.23817 0.671712 1.79482
  ( 111) dim  6 offset 276 8. 10. 6. 10. 7.29805 8.76766
  ( 114) dim  6 offset 282 10. 3.47181 10. 4.35987 9.41984 3.89716
  ( 115) dim  6 offset 288 0. 4.35987 0. 3.47181 0.591933 3.88639
  ( 119) dim  6 offset 294 10. 3.47181 9.41984 3.89716 9.24325 3.11049
  ( 121) dim  6 offset 300 0. 3.47181 0.749444 3.10311 0.591933 3.88639
  ( 122) dim  6 offset 306 10. 2.10474 9.49757 2.43592 9.32498 1.79705
  ( 125) dim  6 offset 312 0. 2.10474 0.671712 1.79482 0.498993 2.43228
  ( 126) dim  6 offset 318 10. 2.10474 10. 2.7279 9.49757 2.43592
  ( 128) dim  6 offset 324 0. 2.7279 0. 2.10474 0.498993 2.43228
  ( 129) dim  6 offset 330 2. 0. 1.0554 0.962318 0.868263 0.107654
  ( 130) dim  6 offset 336 8. 0. 9.13066 0.107654 8.93859 0.962318
  ( 136) dim  6 offset 342 6. 10. 5.9586 8.6351 7.29805 8.76766
  ( 137) dim  6 offset 348 6. 0. 6.86846 1.33806 5.27874 1.24443
  ( 143) dim  6 offset 354 10. 4.35987 9.1193 4.58447 9.41984 3.89716
  ( 146) dim  6 offset 360 0. 4.35987 0.591933 3.88639 0.87089 4.57784
  ( 165) dim  6 offset 366 8. 10. 7.29805 8.76766 8.73903 8.80882
  ( 168) dim  6 offset 372 0. 0. 2. 0. 0.868263 0.107654
  ( 169) dim  6 offset 378 0. 0. 0.868263 0.107654 0.253702 0.300165
  ( 170) dim  6 offset 384 10. 0. 9.13066 0.107654 8. 0.
  ( 171) dim  6 offset 390 10. 0. 9.74585 0.300165 9.13066 0.107654
  ( 172) dim  6 offset 396 0. 1.14546 0. 0.779171 0.400245 0.705528
  ( 173) dim  6 offset 402 0. 1.14546 0.400245 0.705528 0.425471 1.23817
  ( 174) dim  6 offset 408 0. 0.779171 0. 0.472336 0.400245 0.705528
  ( 175) dim  6 offset 414 0. 0.472336 0. 0.215307 0.253702 0.300165
  ( 176) dim  6 offset 420 10. 0.215307 10. 0.472336 9.74585 0.300165
  ( 177) dim  6 offset 426 10. 0.472336 10. 0.779171 9.59857 0.705528
  ( 178) dim  6 offset 432 10. 0.779171 10. 1.14546 9.59857 0.705528
  ( 179) dim  6 offset 438 10. 1.14546 9.57243 1.23862 9.59857 0.705528
  ( 180) dim  2 offset   0 0. 10.
  ( 181) dim  2 offset   2 8. 10.
  ( 182) dim  2 offset   4 6. 10.
  ( 183) dim  2 offset   6 4. 10.
  ( 184) dim  2 offset   8 2. 10.
  ( 185) dim  2 offset  10 0. 8.19642
  ( 186) dim  2 offset  12 0. 6.6856
  ( 187) dim  2 offset  14 0. 5.42002
  ( 188) dim  2 offset  16 0. 4.35987
  ( 189) dim  2 offset  18 0. 3.47181
  ( 190) dim  2 offset  20 0. 2.7279
  ( 191) dim  2 offset  22 0. 2.10474
  ( 192) dim  2 offset  24 0. 1.58274
  ( 193) dim  2 offset  26 0. 1.14546
  ( 194) dim  2 offset  28 0. 0.779171
  ( 195) dim  2 offset  30 0. 0.472336
  ( 196) dim  2 offset  32 0. 0.215307
  ( 197) dim  2 offset  34 4.9595 4.74872
  ( 198) dim  2 offset  36 7.17311 3.09985
  ( 199) dim  2 offset  38 2.78638 3.09985
  ( 200) dim  2 offset  40 8.26894 1.70967
  ( 201) dim  2 offset  42 1.72534 1.70268
  ( 202) dim  2 offset  44 7.31989 5.76092
  ( 203) dim  2 offset  46 2.6215 5.92335
  ( 204) dim  2 offset  48 4.91695 2.67832
  ( 205) dim  2 offset  50 8.93859 0.962318
  ( 206) dim  2 offset  52 9.13066 0.107654
  ( 207) dim  2 offset  54 5.084 7.26796
  ( 208) dim  2 offset  56 1.0554 0.962318
  ( 209) dim  2 offset  58 0.868263 0.107654
  ( 210) dim  2 offset  60 8.54066 3.8695
  ( 211) dim  2 offset  62 1.44184 3.86046
  ( 212) dim  2 offset  64 6.70917 4.51313
  ( 213) dim  2 offset  66 3.2836 4.59137
  ( 214) dim  2 offset  68 3.12585 8.26215
  ( 215) dim  2 offset  70 8.22177 7.35767
  ( 216) dim  2 offset  72 1.55009 7.44101
  ( 217) dim  2 offset  74 8.91962 2.43944
  ( 218) dim  2 offset  76 1.07381 2.43084
  ( 219) dim  2 offset  78 8.59882 5.34793
  ( 220) dim  2 offset  80 1.37673 5.37229
  ( 221) dim  2 offset  82 4.15886 6.28104
  ( 222) dim  2 offset  84 5.95609 5.97094
  ( 223) dim  2 offset  86 3.06071 1.41723
  ( 224) dim  2 offset  88 6.86846 1.33806
  ( 225) dim  2 offset  90 9.59857 0.705528
  ( 226) dim  2 offset  92 0.400245 0.705528
  ( 227) dim  2 offset  94 6.65227 7.73718
  ( 228) dim  2 offset  96 4.3047 3.88791
  ( 229) dim  2 offset  98 5.61584 3.9107
  ( 230) dim  2 offset 100 9.32498 1.79705
  ( 231) dim  2 offset 102 0.671712 1.79482
  ( 232) dim  2 offset 104 8.18287 2.93265
  ( 233) dim  2 offset 106 7.84116 4.66103
  ( 234) dim  2 offset 108 9.24325 3.11049
  ( 235) dim  2 offset 110 0.749444 3.10311
  ( 236) dim  2 offset 112 1.79055 2.89942
  ( 237) dim  2 offset 114 9.57243 1.23862
  ( 238) dim  2 offset 116 0.425471 1.23817
  ( 239) dim  2 offset 118 2.12261 4.67701
  ( 240) dim  2 offset 120 9.74585 0.300165
  ( 241) dim  2 offset 122 0.253702 0.300165
  ( 242) dim  2 offset 124 3.68019 2.70775
  ( 243) dim  2 offset 126 6.22483 2.65805
  ( 244) dim  2 offset 128 9.1193 4.58447
  ( 245) dim  2 offset 130 5.27874 1.24443
  ( 246) dim  2 offset 132 1.10021 6.34187
  ( 247) dim  2 offset 134 8.87531 6.3037
  ( 248) dim  2 offset 136 0.87089 4.57784
  ( 249) dim  2 offset 138 1.33519 8.77992
  ( 250) dim  2 offset 140 8.73903 8.80882
  ( 251) dim  2 offset 142 0.591933 3.88639
  ( 252) dim  2 offset 144 9.41984 3.89716
  ( 253) dim  2 offset 146 4.7186 8.78684
  ( 254) dim  2 offset 148 5.9586 8.6351
  ( 255) dim  2 offset 150 4.05712 5.23812
  ( 256) dim  2 offset 152 3.25362 6.94723
  ( 257) dim  2 offset 154 2.47974 2.30588
  ( 258) dim  2 offset 156 7.34364 2.34766
  ( 259) dim  2 offset 158 7.29805 8.76766
  ( 260) dim  2 offset 160 7.53772 3.80392
  ( 261) dim  2 offset 162 4.18732 1.60954
  ( 262) dim  2 offset 164 5.00364 5.84111
  ( 263) dim  2 offset 166 2.37796 3.81257
  ( 264) dim  2 offset 168 6.58255 3.6575
  ( 265) dim  2 offset 170 9.49757 2.43592
  ( 266) dim  2 offset 172 0.498993 2.43228
  ( 267) dim  2 offset 174 3.35245 3.67474
  ( 268) dim  2 offset 176 5.81216 5.05816
  ( 269) dim  2 offset 178 6.62255 6.69854
Labels:
Label 'celltype':
[0]: 180 (0)
[0]: 181 (0)
[0]: 182 (0)
[0]: 183 (0)
[0]: 184 (0)
[0]: 185 (0)
[0]: 186 (0)
[0]: 187 (0)
[0]: 188 (0)
[0]: 189 (0)
[0]: 190 (0)
[0]: 191 (0)
[0]: 192 (0)
[0]: 193 (0)
[0]: 194 (0)
[0]: 195 (0)
[0]: 196 (0)
[0]: 197 (0)
[0]: 198 (0)
[0]: 199 (0)
[0]: 200 (0)
[0]: 201 (0)
[0]: 202 (0)
[0]: 203 (0)
[0]: 204 (0)
[0]: 205 (0)
[0]: 206 (0)
[0]: 207 (0)
[0]: 208 (0)
[0]: 209 (0)
[0]: 210 (0)
[0]: 211 (0)
[0]: 212 (0)
[0]: 213 (0)
[0]: 214 (0)
[0]: 215 (0)
[0]: 216 (0)
[0]: 217 (0)
[0]: 218 (0)
[0]: 219 (0)
[0]: 220 (0)
[0]: 221 (0)
[0]: 222 (0)
[0]: 223 (0)
[0]: 224 (0)
[0]: 225 (0)
[0]: 226 (0)
[0]: 227 (0)
[0]: 228 (0)
[0]: 229 (0)
[0]: 230 (0)
[0]: 231 (0)
[0]: 232 (0)
[0]: 233 (0)
[0]: 234 (0)
[0]: 235 (0)
[0]: 236 (0)
[0]: 237 (0)
[0]: 238 (0)
[0]: 239 (0)
[0]: 240 (0)
[0]: 241 (0)
[0]: 242 (0)
[0]: 243 (0)
[0]: 244 (0)
[0]: 245 (0)
[0]: 246 (0)
[0]: 247 (0)
[0]: 248 (0)
[0]: 249 (0)
[0]: 250 (0)
[0]: 251 (0)
[0]: 252 (0)
[0]: 253 (0)
[0]: 254 (0)
[0]: 255 (0)
[0]: 256 (0)
[0]: 257 (0)
[0]: 258 (0)
[0]: 259 (0)
[0]: 260 (0)
[0]: 261 (0)
[0]: 262 (0)
[0]: 263 (0)
[0]: 264 (0)
[0]: 265 (0)
[0]: 266 (0)
[0]: 267 (0)
[0]: 268 (0)
[0]: 269 (0)
[0]: 0 (3)
[0]: 1 (3)
[0]: 2 (3)
[0]: 3 (3)
[0]: 4 (3)
[0]: 5 (3)
[0]: 6 (3)
[0]: 7 (3)
[0]: 8 (3)
[0]: 9 (3)
[0]: 10 (3)
[0]: 11 (3)
[0]: 12 (3)
[0]: 13 (3)
[0]: 14 (3)
[0]: 15 (3)
[0]: 16 (3)
[0]: 17 (3)
[0]: 18 (3)
[0]: 19 (3)
[0]: 20 (3)
[0]: 21 (3)
[0]: 22 (3)
[0]: 23 (3)
[0]: 24 (3)
[0]: 25 (3)
[0]: 26 (3)
[0]: 27 (3)
[0]: 28 (3)
[0]: 29 (3)
[0]: 30 (3)
[0]: 31 (3)
[0]: 32 (3)
[0]: 33 (3)
[0]: 34 (3)
[0]: 35 (3)
[0]: 36 (3)
[0]: 37 (3)
[0]: 38 (3)
[0]: 39 (3)
[0]: 40 (3)
[0]: 41 (3)
[0]: 42 (3)
[0]: 43 (3)
[0]: 44 (3)
[0]: 45 (3)
[0]: 46 (3)
[0]: 47 (3)
[0]: 48 (3)
[0]: 49 (3)
[0]: 50 (3)
[0]: 51 (3)
[0]: 52 (3)
[0]: 53 (3)
[0]: 54 (3)
[0]: 55 (3)
[0]: 56 (3)
[0]: 57 (3)
[0]: 58 (3)
[0]: 59 (3)
[0]: 60 (3)
[0]: 61 (3)
[0]: 62 (3)
[0]: 63 (3)
[0]: 64 (3)
[0]: 65 (3)
[0]: 66 (3)
[0]: 67 (3)
[0]: 68 (3)
[0]: 69 (3)
[0]: 70 (3)
[0]: 71 (3)
[0]: 72 (3)
[0]: 73 (3)
[0]: 74 (3)
[0]: 75 (3)
[0]: 76 (3)
[0]: 77 (3)
[0]: 78 (3)
[0]: 79 (3)
[0]: 80 (3)
[0]: 81 (3)
[0]: 82 (3)
[0]: 83 (3)
[0]: 84 (3)
[0]: 85 (3)
[0]: 86 (3)
[0]: 87 (3)
[0]: 88 (3)
[0]: 89 (3)
[0]: 90 (3)
[0]: 91 (3)
[0]: 92 (3)
[0]: 93 (3)
[0]: 94 (3)
[0]: 95 (3)
[0]: 96 (3)
[0]: 97 (3)
[0]: 98 (3)
[0]: 99 (3)
[0]: 100 (3)
[0]: 101 (3)
[0]: 102 (3)
[0]: 103 (3)
[0]: 104 (3)
[0]: 105 (3)
[0]: 106 (3)
[0]: 107 (3)
[0]: 108 (3)
[0]: 109 (3)
[0]: 110 (3)
[0]: 111 (3)
[0]: 112 (3)
[0]: 113 (3)
[0]: 114 (3)
[0]: 115 (3)
[0]: 116 (3)
[0]: 117 (3)
[0]: 118 (3)
[0]: 119 (3)
[0]: 120 (3)
[0]: 121 (3)
[0]: 122 (3)
[0]: 123 (3)
[0]: 124 (3)
[0]: 125 (3)
[0]: 126 (3)
[0]: 127 (3)
[0]: 128 (3)
[0]: 129 (3)
[0]: 130 (3)
[0]: 131 (3)
[0]: 132 (3)
[0]: 133 (3)
[0]: 134 (3)
[0]: 135 (3)
[0]: 136 (3)
[0]: 137 (3)
[0]: 138 (3)
[0]: 139 (3)
[0]: 140 (3)
[0]: 141 (3)
[0]: 142 (3)
[0]: 143 (3)
[0]: 144 (3)
[0]: 145 (3)
[0]: 146 (3)
[0]: 147 (3)
[0]: 148 (3)
[0]: 149 (3)
[0]: 150 (3)
[0]: 151 (3)
[0]: 152 (3)
[0]: 153 (3)
[0]: 154 (3)
[0]: 155 (3)
[0]: 156 (3)
[0]: 157 (3)
[0]: 158 (3)
[0]: 159 (3)
[0]: 160 (3)
[0]: 161 (3)
[0]: 162 (3)
[0]: 163 (3)
[0]: 164 (3)
[0]: 165 (3)
[0]: 166 (3)
[0]: 167 (3)
[0]: 168 (3)
[0]: 169 (3)
[0]: 170 (3)
[0]: 171 (3)
[0]: 172 (3)
[0]: 173 (3)
[0]: 174 (3)
[0]: 175 (3)
[0]: 176 (3)
[0]: 177 (3)
[0]: 178 (3)
[0]: 179 (3)
[0]: 270 (1)
[0]: 271 (1)
[0]: 272 (1)
[0]: 273 (1)
[0]: 274 (1)
[0]: 275 (1)
[0]: 276 (1)
[0]: 277 (1)
[0]: 278 (1)
[0]: 279 (1)
[0]: 280 (1)
[0]: 281 (1)
[0]: 282 (1)
[0]: 283 (1)
[0]: 284 (1)
[0]: 285 (1)
[0]: 286 (1)
[0]: 287 (1)
[0]: 288 (1)
[0]: 289 (1)
[0]: 290 (1)
[0]: 291 (1)
[0]: 292 (1)
[0]: 293 (1)
[0]: 294 (1)
[0]: 295 (1)
[0]: 296 (1)
[0]: 297 (1)
[0]: 298 (1)
[0]: 299 (1)
[0]: 300 (1)
[0]: 301 (1)
[0]: 302 (1)
[0]: 303 (1)
[0]: 304 (1)
[0]: 305 (1)
[0]: 306 (1)
[0]: 307 (1)
[0]: 308 (1)
[0]: 309 (1)
[0]: 310 (1)
[0]: 311 (1)
[0]: 312 (1)
[0]: 313 (1)
[0]: 314 (1)
[0]: 315 (1)
[0]: 316 (1)
[0]: 317 (1)
[0]: 318 (1)
[0]: 319 (1)
[0]: 320 (1)
[0]: 321 (1)
[0]: 322 (1)
[0]: 323 (1)
[0]: 324 (1)
[0]: 325 (1)
[0]: 326 (1)
[0]: 327 (1)
[0]: 328 (1)
[0]: 329 (1)
[0]: 330 (1)
[0]: 331 (1)
[0]: 332 (1)
[0]: 333 (1)
[0]: 334 (1)
[0]: 335 (1)
[0]: 336 (1)
[0]: 337 (1)
[0]: 338 (1)
[0]: 339 (1)
[0]: 340 (1)
[0]: 341 (1)
[0]: 342 (1)
[0]: 343 (1)
[0]: 344 (1)
[0]: 345 (1)
[0]: 346 (1)
[0]: 347 (1)
[0]: 348 (1)
[0]: 349 (1)
[0]: 350 (1)
[0]: 351 (1)
[0]: 352 (1)
[0]: 353 (1)
[0]: 354 (1)
[0]: 355 (1)
[0]: 356 (1)
[0]: 357 (1)
[0]: 358 (1)
[0]: 359 (1)
[0]: 360 (1)
[0]: 361 (1)
[0]: 362 (1)
[0]: 363 (1)
[0]: 364 (1)
[0]: 365 (1)
[0]: 366 (1)
[0]: 367 (1)
[0]: 368 (1)
[0]: 369 (1)
[0]: 370 (1)
[0]: 371 (1)
[0]: 372 (1)
[0]: 373 (1)
[0]: 374 (1)
[0]: 375 (1)
[0]: 376 (1)
[0]: 377 (1)
[0]: 378 (1)
[0]: 379 (1)
[0]: 380 (1)
[0]: 381 (1)
[0]: 382 (1)
[0]: 383 (1)
[0]: 384 (1)
[0]: 385 (1)
[0]: 386 (1)
[0]: 387 (1)
[0]: 388 (1)
[0]: 389 (1)
[0]: 390 (1)
[0]: 391 (1)
[0]: 392 (1)
[0]: 393 (1)
[0]: 394 (1)
[0]: 395 (1)
[0]: 396 (1)
[0]: 397 (1)
[0]: 398 (1)
[0]: 399 (1)
[0]: 400 (1)
[0]: 401 (1)
[0]: 402 (1)
[0]: 403 (1)
[0]: 404 (1)
[0]: 405 (1)
[0]: 406 (1)
[0]: 407 (1)
[0]: 408 (1)
[0]: 409 (1)
[0]: 410 (1)
[0]: 411 (1)
[0]: 412 (1)
[0]: 413 (1)
[0]: 414 (1)
[0]: 415 (1)
[0]: 416 (1)
[0]: 417 (1)
[0]: 418 (1)
[0]: 419 (1)
[0]: 420 (1)
[0]: 421 (1)
[0]: 422 (1)
[0]: 423 (1)
[0]: 424 (1)
[0]: 425 (1)
[0]: 426 (1)
[0]: 427 (1)
[0]: 428 (1)
[0]: 429 (1)
[0]: 430 (1)
[0]: 431 (1)
[0]: 432 (1)
[0]: 433 (1)
[0]: 434 (1)
[0]: 435 (1)
[0]: 436 (1)
[0]: 437 (1)
[0]: 438 (1)
[0]: 439 (1)
[0]: 440 (1)
[0]: 441 (1)
[0]: 442 (1)
[0]: 443 (1)
[0]: 444 (1)
[0]: 445 (1)
[0]: 446 (1)
[0]: 447 (1)
[0]: 448 (1)
[0]: 449 (1)
[0]: 450 (1)
[0]: 451 (1)
[0]: 452 (1)
[0]: 453 (1)
[0]: 454 (1)
[0]: 455 (1)
[0]: 456 (1)
[0]: 457 (1)
[0]: 458 (1)
[0]: 459 (1)
[0]: 460 (1)
[0]: 461 (1)
[0]: 462 (1)
[0]: 463 (1)
[0]: 464 (1)
[0]: 465 (1)
[0]: 466 (1)
[0]: 467 (1)
[0]: 468 (1)
[0]: 469 (1)
[0]: 470 (1)
[0]: 471 (1)
[0]: 472 (1)
[0]: 473 (1)
[0]: 474 (1)
[0]: 475 (1)
[0]: 476 (1)
[0]: 477 (1)
[0]: 478 (1)
[0]: 479 (1)
[0]: 480 (1)
[0]: 481 (1)
[0]: 482 (1)
[0]: 483 (1)
[0]: 484 (1)
[0]: 485 (1)
[0]: 486 (1)
[0]: 487 (1)
[0]: 488 (1)
[0]: 489 (1)
[0]: 490 (1)
[0]: 491 (1)
[0]: 492 (1)
[0]: 493 (1)
[0]: 494 (1)
[0]: 495 (1)
[0]: 496 (1)
[0]: 497 (1)
[0]: 498 (1)
[0]: 499 (1)
[0]: 500 (1)
[0]: 501 (1)
[0]: 502 (1)
[0]: 503 (1)
[0]: 504 (1)
[0]: 505 (1)
[0]: 506 (1)
[0]: 507 (1)
[0]: 508 (1)
[0]: 509 (1)
[0]: 510 (1)
[0]: 511 (1)
[0]: 512 (1)
[0]: 513 (1)
[0]: 514 (1)
[0]: 515 (1)
[0]: 516 (1)
[0]: 517 (1)
[0]: 518 (1)
[0]: 519 (1)
[0]: 520 (1)
[0]: 521 (1)
[0]: 522 (1)
[0]: 523 (1)
[0]: 524 (1)
[0]: 525 (1)
[0]: 526 (1)
[0]: 527 (1)
[0]: 528 (1)
[0]: 529 (1)
[0]: 530 (1)
[0]: 531 (1)
[0]: 532 (1)
[0]: 533 (1)
[0]: 534 (1)
[0]: 535 (1)
[0]: 536 (1)
[0]: 537 (1)
[0]: 538 (1)
[0]: 539 (1)
Label 'Cell Sets':
[0]: 0 (0)
[0]: 1 (0)
[0]: 2 (0)
[0]: 3 (0)
[0]: 4 (0)
[0]: 5 (0)
[0]: 6 (0)
[0]: 7 (0)
[0]: 8 (0)
[0]: 9 (0)
[0]: 10 (0)
[0]: 11 (0)
[0]: 12 (0)
[0]: 13 (0)
[0]: 14 (0)
[0]: 15 (0)
[0]: 16 (0)
[0]: 17 (0)
[0]: 18 (0)
[0]: 19 (0)
[0]: 20 (0)
[0]: 21 (0)
[0]: 22 (0)
[0]: 23 (0)
[0]: 24 (0)
[0]: 25 (0)
[0]: 26 (0)
[0]: 27 (0)
[0]: 28 (0)
[0]: 29 (0)
[0]: 30 (0)
[0]: 31 (0)
[0]: 32 (0)
[0]: 33 (0)
[0]: 34 (0)
[0]: 35 (0)
[0]: 36 (0)
[0]: 37 (0)
[0]: 38 (0)
[0]: 39 (0)
[0]: 40 (0)
[0]: 41 (0)
[0]: 42 (0)
[0]: 43 (0)
[0]: 44 (0)
[0]: 45 (0)
[0]: 46 (0)
[0]: 47 (0)
[0]: 48 (0)
[0]: 49 (0)
[0]: 50 (0)
[0]: 51 (0)
[0]: 52 (0)
[0]: 53 (0)
[0]: 54 (0)
[0]: 55 (0)
[0]: 56 (0)
[0]: 57 (0)
[0]: 58 (0)
[0]: 59 (0)
[0]: 60 (0)
[0]: 61 (0)
[0]: 62 (0)
[0]: 63 (0)
[0]: 64 (0)
[0]: 65 (0)
[0]: 66 (0)
[0]: 67 (0)
[0]: 68 (0)
[0]: 69 (0)
[0]: 70 (0)
[0]: 71 (0)
[0]: 72 (0)
[0]: 73 (0)
[0]: 74 (0)
[0]: 75 (0)
[0]: 76 (0)
[0]: 77 (0)
[0]: 78 (0)
[0]: 79 (0)
[0]: 80 (0)
[0]: 81 (0)
[0]: 82 (0)
[0]: 83 (0)
[0]: 84 (0)
[0]: 85 (0)
[0]: 86 (0)
[0]: 87 (0)
[0]: 88 (0)
[0]: 89 (0)
[0]: 90 (0)
[0]: 91 (0)
[0]: 92 (0)
[0]: 93 (0)
[0]: 94 (0)
[0]: 95 (0)
[0]: 96 (0)
[0]: 97 (0)
[0]: 98 (0)
[0]: 99 (0)
[0]: 100 (0)
[0]: 101 (0)
[0]: 102 (0)
[0]: 103 (0)
[0]: 104 (0)
[0]: 105 (0)
[0]: 106 (0)
[0]: 107 (0)
[0]: 108 (0)
[0]: 109 (0)
[0]: 110 (0)
[0]: 111 (0)
[0]: 112 (0)
[0]: 113 (0)
[0]: 114 (0)
[0]: 115 (0)
[0]: 116 (0)
[0]: 117 (0)
[0]: 118 (0)
[0]: 119 (0)
[0]: 120 (0)
[0]: 121 (0)
[0]: 122 (0)
[0]: 123 (0)
[0]: 124 (0)
[0]: 125 (0)
[0]: 126 (0)
[0]: 127 (0)
[0]: 128 (0)
[0]: 129 (0)
[0]: 130 (0)
[0]: 131 (0)
[0]: 132 (0)
[0]: 133 (0)
[0]: 134 (0)
[0]: 135 (0)
[0]: 136 (0)
[0]: 137 (0)
[0]: 138 (0)
[0]: 139 (0)
[0]: 140 (0)
[0]: 141 (0)
[0]: 142 (0)
[0]: 143 (0)
[0]: 144 (0)
[0]: 145 (0)
[0]: 146 (0)
[0]: 147 (0)
[0]: 148 (0)
[0]: 149 (0)
[0]: 150 (0)
[0]: 151 (0)
[0]: 152 (0)
[0]: 153 (0)
[0]: 154 (0)
[0]: 155 (0)
[0]: 156 (0)
[0]: 157 (0)
[0]: 158 (0)
[0]: 159 (0)
[0]: 160 (0)
[0]: 161 (0)
[0]: 162 (0)
[0]: 163 (0)
[0]: 164 (0)
[0]: 165 (0)
[0]: 166 (0)
[0]: 167 (0)
[0]: 168 (0)
[0]: 169 (0)
[0]: 170 (0)
[0]: 171 (0)
[0]: 172 (0)
[0]: 173 (0)
[0]: 174 (0)
[0]: 175 (0)
[0]: 176 (0)
[0]: 177 (0)
[0]: 178 (0)
[0]: 179 (0)
Label 'Face Sets':
[0]: 287 (0)
[0]: 307 (0)
[0]: 322 (0)
[0]: 350 (0)
[0]: 385 (0)
[0]: 386 (0)
[0]: 395 (0)
[0]: 417 (0)
[0]: 432 (0)
[0]: 439 (0)
[0]: 459 (0)
[0]: 465 (0)
[0]: 467 (0)
[0]: 481 (0)
[0]: 502 (0)
[0]: 533 (0)
[0]: 536 (0)
[0]: 537 (0)
[0]: 350 (1)
[0]: 417 (1)
[0]: 459 (1)
[0]: 465 (1)
[0]: 467 (1)
[0]: 287 (2)
[0]: 307 (2)
[0]: 322 (2)
[0]: 385 (2)
[0]: 386 (2)
[0]: 395 (2)
[0]: 432 (2)
[0]: 439 (2)
[0]: 481 (2)
[0]: 502 (2)
[0]: 533 (2)
[0]: 536 (2)
[0]: 537 (2)
[0]: 350 (3)
[0]: 417 (3)
[0]: 459 (3)
[0]: 465 (3)
[0]: 467 (3)
[0]: 287 (4)
[0]: 307 (4)
[0]: 322 (4)
[0]: 385 (4)
[0]: 386 (4)
[0]: 395 (4)
[0]: 432 (4)
[0]: 439 (4)
[0]: 481 (4)
[0]: 502 (4)
[0]: 533 (4)
[0]: 536 (4)
[0]: 537 (4)
Label 'Vertex Sets':
[0]: 180 (0)
