DM Object: Input Mesh 1 MPI process
  type: plex
Input Mesh in 3 dimensions:
Supports:
[0] Max support size: 4
[0]: 3 ----> 35
[0]: 3 ----> 47
[0]: 3 ----> 55
[0]: 4 ----> 35
[0]: 4 ----> 36
[0]: 4 ----> 48
[0]: 4 ----> 56
[0]: 5 ----> 36
[0]: 5 ----> 37
[0]: 5 ----> 49
[0]: 5 ----> 57
[0]: 6 ----> 37
[0]: 6 ----> 50
[0]: 6 ----> 58
[0]: 7 ----> 38
[0]: 7 ----> 47
[0]: 7 ----> 59
[0]: 8 ----> 38
[0]: 8 ----> 39
[0]: 8 ----> 48
[0]: 8 ----> 60
[0]: 9 ----> 39
[0]: 9 ----> 40
[0]: 9 ----> 49
[0]: 9 ----> 61
[0]: 10 ----> 40
[0]: 10 ----> 50
[0]: 10 ----> 62
[0]: 11 ----> 41
[0]: 11 ----> 51
[0]: 11 ----> 55
[0]: 12 ----> 41
[0]: 12 ----> 42
[0]: 12 ----> 52
[0]: 12 ----> 56
[0]: 13 ----> 42
[0]: 13 ----> 43
[0]: 13 ----> 53
[0]: 13 ----> 57
[0]: 14 ----> 43
[0]: 14 ----> 54
[0]: 14 ----> 58
[0]: 15 ----> 44
[0]: 15 ----> 51
[0]: 15 ----> 59
[0]: 16 ----> 44
[0]: 16 ----> 45
[0]: 16 ----> 52
[0]: 16 ----> 60
[0]: 17 ----> 45
[0]: 17 ----> 46
[0]: 17 ----> 53
[0]: 17 ----> 61
[0]: 18 ----> 46
[0]: 18 ----> 54
[0]: 18 ----> 62
[0]: 19 ----> 0
[0]: 20 ----> 0
[0]: 20 ----> 1
[0]: 21 ----> 1
[0]: 21 ----> 2
[0]: 22 ----> 2
[0]: 23 ----> 0
[0]: 24 ----> 0
[0]: 25 ----> 1
[0]: 26 ----> 1
[0]: 27 ----> 2
[0]: 28 ----> 2
[0]: 29 ----> 0
[0]: 30 ----> 0
[0]: 31 ----> 1
[0]: 32 ----> 1
[0]: 33 ----> 2
[0]: 34 ----> 2
[0]: 35 ----> 23
[0]: 35 ----> 29
[0]: 36 ----> 25
[0]: 36 ----> 31
[0]: 37 ----> 27
[0]: 37 ----> 33
[0]: 38 ----> 24
[0]: 38 ----> 29
[0]: 39 ----> 26
[0]: 39 ----> 31
[0]: 40 ----> 28
[0]: 40 ----> 33
[0]: 41 ----> 23
[0]: 41 ----> 30
[0]: 42 ----> 25
[0]: 42 ----> 32
[0]: 43 ----> 27
[0]: 43 ----> 34
[0]: 44 ----> 24
[0]: 44 ----> 30
[0]: 45 ----> 26
[0]: 45 ----> 32
[0]: 46 ----> 28
[0]: 46 ----> 34
[0]: 47 ----> 19
[0]: 47 ----> 29
[0]: 48 ----> 20
[0]: 48 ----> 29
[0]: 48 ----> 31
[0]: 49 ----> 21
[0]: 49 ----> 31
[0]: 49 ----> 33
[0]: 50 ----> 22
[0]: 50 ----> 33
[0]: 51 ----> 19
[0]: 51 ----> 30
[0]: 52 ----> 20
[0]: 52 ----> 30
[0]: 52 ----> 32
[0]: 53 ----> 21
[0]: 53 ----> 32
[0]: 53 ----> 34
[0]: 54 ----> 22
[0]: 54 ----> 34
[0]: 55 ----> 19
[0]: 55 ----> 23
[0]: 56 ----> 20
[0]: 56 ----> 23
[0]: 56 ----> 25
[0]: 57 ----> 21
[0]: 57 ----> 25
[0]: 57 ----> 27
[0]: 58 ----> 22
[0]: 58 ----> 27
[0]: 59 ----> 19
[0]: 59 ----> 24
[0]: 60 ----> 20
[0]: 60 ----> 24
[0]: 60 ----> 26
[0]: 61 ----> 21
[0]: 61 ----> 26
[0]: 61 ----> 28
[0]: 62 ----> 22
[0]: 62 ----> 28
Cones:
[0] Max cone size: 6
[0]: 0 <---- 29 (-2)
[0]: 0 <---- 30 (0)
[0]: 0 <---- 23 (0)
[0]: 0 <---- 24 (-3)
[0]: 0 <---- 20 (0)
[0]: 0 <---- 19 (-2)
[0]: 1 <---- 31 (-2)
[0]: 1 <---- 32 (0)
[0]: 1 <---- 25 (0)
[0]: 1 <---- 26 (-3)
[0]: 1 <---- 21 (0)
[0]: 1 <---- 20 (-2)
[0]: 2 <---- 33 (-2)
[0]: 2 <---- 34 (0)
[0]: 2 <---- 27 (0)
[0]: 2 <---- 28 (-3)
[0]: 2 <---- 22 (0)
[0]: 2 <---- 21 (-2)
[0]: 19 <---- 47 (0)
[0]: 19 <---- 59 (0)
[0]: 19 <---- 51 (-1)
[0]: 19 <---- 55 (-1)
[0]: 20 <---- 48 (0)
[0]: 20 <---- 60 (0)
[0]: 20 <---- 52 (-1)
[0]: 20 <---- 56 (-1)
[0]: 21 <---- 49 (0)
[0]: 21 <---- 61 (0)
[0]: 21 <---- 53 (-1)
[0]: 21 <---- 57 (-1)
[0]: 22 <---- 50 (0)
[0]: 22 <---- 62 (0)
[0]: 22 <---- 54 (-1)
[0]: 22 <---- 58 (-1)
[0]: 23 <---- 35 (0)
[0]: 23 <---- 56 (0)
[0]: 23 <---- 41 (-1)
[0]: 23 <---- 55 (-1)
[0]: 24 <---- 38 (0)
[0]: 24 <---- 60 (0)
[0]: 24 <---- 44 (-1)
[0]: 24 <---- 59 (-1)
[0]: 25 <---- 36 (0)
[0]: 25 <---- 57 (0)
[0]: 25 <---- 42 (-1)
[0]: 25 <---- 56 (-1)
[0]: 26 <---- 39 (0)
[0]: 26 <---- 61 (0)
[0]: 26 <---- 45 (-1)
[0]: 26 <---- 60 (-1)
[0]: 27 <---- 37 (0)
[0]: 27 <---- 58 (0)
[0]: 27 <---- 43 (-1)
[0]: 27 <---- 57 (-1)
[0]: 28 <---- 40 (0)
[0]: 28 <---- 62 (0)
[0]: 28 <---- 46 (-1)
[0]: 28 <---- 61 (-1)
[0]: 29 <---- 35 (0)
[0]: 29 <---- 48 (0)
[0]: 29 <---- 38 (-1)
[0]: 29 <---- 47 (-1)
[0]: 30 <---- 41 (0)
[0]: 30 <---- 52 (0)
[0]: 30 <---- 44 (-1)
[0]: 30 <---- 51 (-1)
[0]: 31 <---- 36 (0)
[0]: 31 <---- 49 (0)
[0]: 31 <---- 39 (-1)
[0]: 31 <---- 48 (-1)
[0]: 32 <---- 42 (0)
[0]: 32 <---- 53 (0)
[0]: 32 <---- 45 (-1)
[0]: 32 <---- 52 (-1)
[0]: 33 <---- 37 (0)
[0]: 33 <---- 50 (0)
[0]: 33 <---- 40 (-1)
[0]: 33 <---- 49 (-1)
[0]: 34 <---- 43 (0)
[0]: 34 <---- 54 (0)
[0]: 34 <---- 46 (-1)
[0]: 34 <---- 53 (-1)
[0]: 35 <---- 3 (0)
[0]: 35 <---- 4 (0)
[0]: 36 <---- 4 (0)
[0]: 36 <---- 5 (0)
[0]: 37 <---- 5 (0)
[0]: 37 <---- 6 (0)
[0]: 38 <---- 7 (0)
[0]: 38 <---- 8 (0)
[0]: 39 <---- 8 (0)
[0]: 39 <---- 9 (0)
[0]: 40 <---- 9 (0)
[0]: 40 <---- 10 (0)
[0]: 41 <---- 11 (0)
[0]: 41 <---- 12 (0)
[0]: 42 <---- 12 (0)
[0]: 42 <---- 13 (0)
[0]: 43 <---- 13 (0)
[0]: 43 <---- 14 (0)
[0]: 44 <---- 15 (0)
[0]: 44 <---- 16 (0)
[0]: 45 <---- 16 (0)
[0]: 45 <---- 17 (0)
[0]: 46 <---- 17 (0)
[0]: 46 <---- 18 (0)
[0]: 47 <---- 3 (0)
[0]: 47 <---- 7 (0)
[0]: 48 <---- 4 (0)
[0]: 48 <---- 8 (0)
[0]: 49 <---- 5 (0)
[0]: 49 <---- 9 (0)
[0]: 50 <---- 6 (0)
[0]: 50 <---- 10 (0)
[0]: 51 <---- 11 (0)
[0]: 51 <---- 15 (0)
[0]: 52 <---- 12 (0)
[0]: 52 <---- 16 (0)
[0]: 53 <---- 13 (0)
[0]: 53 <---- 17 (0)
[0]: 54 <---- 14 (0)
[0]: 54 <---- 18 (0)
[0]: 55 <---- 3 (0)
[0]: 55 <---- 11 (0)
[0]: 56 <---- 4 (0)
[0]: 56 <---- 12 (0)
[0]: 57 <---- 5 (0)
[0]: 57 <---- 13 (0)
[0]: 58 <---- 6 (0)
[0]: 58 <---- 14 (0)
[0]: 59 <---- 7 (0)
[0]: 59 <---- 15 (0)
[0]: 60 <---- 8 (0)
[0]: 60 <---- 16 (0)
[0]: 61 <---- 9 (0)
[0]: 61 <---- 17 (0)
[0]: 62 <---- 10 (0)
[0]: 62 <---- 18 (0)
coordinates with 1 fields
  field 0 with 3 components
Process 0:
  (   3) dim  3 offset   0 -1.5 -0.5 -0.5
  (   4) dim  3 offset   3 -0.5 -0.5 -0.5
  (   5) dim  3 offset   6 0.5 -0.5 -0.5
  (   6) dim  3 offset   9 1.5 -0.5 -0.5
  (   7) dim  3 offset  12 -1.5 0.5 -0.5
  (   8) dim  3 offset  15 -0.5 0.5 -0.5
  (   9) dim  3 offset  18 0.5 0.5 -0.5
  (  10) dim  3 offset  21 1.5 0.5 -0.5
  (  11) dim  3 offset  24 -1.5 -0.5 0.5
  (  12) dim  3 offset  27 -0.5 -0.5 0.5
  (  13) dim  3 offset  30 0.5 -0.5 0.5
  (  14) dim  3 offset  33 1.5 -0.5 0.5
  (  15) dim  3 offset  36 -1.5 0.5 0.5
  (  16) dim  3 offset  39 -0.5 0.5 0.5
  (  17) dim  3 offset  42 0.5 0.5 0.5
  (  18) dim  3 offset  45 1.5 0.5 0.5
Labels:
Label 'marker':
[0]: 19 (1)
[0]: 22 (1)
[0]: 23 (1)
[0]: 24 (1)
[0]: 25 (1)
[0]: 26 (1)
[0]: 27 (1)
[0]: 28 (1)
[0]: 29 (1)
[0]: 30 (1)
[0]: 31 (1)
[0]: 32 (1)
[0]: 33 (1)
[0]: 34 (1)
[0]: 35 (1)
[0]: 36 (1)
[0]: 37 (1)
[0]: 38 (1)
[0]: 39 (1)
[0]: 40 (1)
[0]: 41 (1)
[0]: 42 (1)
[0]: 43 (1)
[0]: 44 (1)
[0]: 45 (1)
[0]: 46 (1)
[0]: 47 (1)
[0]: 48 (1)
[0]: 49 (1)
[0]: 50 (1)
[0]: 51 (1)
[0]: 52 (1)
[0]: 53 (1)
[0]: 54 (1)
[0]: 55 (1)
[0]: 56 (1)
[0]: 57 (1)
[0]: 58 (1)
[0]: 59 (1)
[0]: 60 (1)
[0]: 61 (1)
[0]: 62 (1)
Label 'Face Sets':
[0]: 19 (6)
[0]: 22 (5)
[0]: 23 (3)
[0]: 25 (3)
[0]: 27 (3)
[0]: 24 (4)
[0]: 26 (4)
[0]: 28 (4)
[0]: 29 (1)
[0]: 31 (1)
[0]: 33 (1)
[0]: 30 (2)
[0]: 32 (2)
[0]: 34 (2)
Label 'celltype':
[0]: 0 (7)
[0]: 1 (7)
[0]: 2 (7)
[0]: 3 (0)
[0]: 4 (0)
[0]: 5 (0)
[0]: 6 (0)
[0]: 7 (0)
[0]: 8 (0)
[0]: 9 (0)
[0]: 10 (0)
[0]: 11 (0)
[0]: 12 (0)
[0]: 13 (0)
[0]: 14 (0)
[0]: 15 (0)
[0]: 16 (0)
[0]: 17 (0)
[0]: 18 (0)
[0]: 19 (4)
[0]: 20 (4)
[0]: 21 (4)
[0]: 22 (4)
[0]: 23 (4)
[0]: 24 (4)
[0]: 25 (4)
[0]: 26 (4)
[0]: 27 (4)
[0]: 28 (4)
[0]: 29 (4)
[0]: 30 (4)
[0]: 31 (4)
[0]: 32 (4)
[0]: 33 (4)
[0]: 34 (4)
[0]: 35 (1)
[0]: 36 (1)
[0]: 37 (1)
[0]: 38 (1)
[0]: 39 (1)
[0]: 40 (1)
[0]: 41 (1)
[0]: 42 (1)
[0]: 43 (1)
[0]: 44 (1)
[0]: 45 (1)
[0]: 46 (1)
[0]: 47 (1)
[0]: 48 (1)
[0]: 49 (1)
[0]: 50 (1)
[0]: 51 (1)
[0]: 52 (1)
[0]: 53 (1)
[0]: 54 (1)
[0]: 55 (1)
[0]: 56 (1)
[0]: 57 (1)
[0]: 58 (1)
[0]: 59 (1)
[0]: 60 (1)
[0]: 61 (1)
[0]: 62 (1)
