DM Object: box 1 MPI process
  type: plex
box in 3 dimensions:
  Number of 0-cells per rank: 18
  Number of 1-cells per rank: 39
  Number of 2-cells per rank: 27
  Number of 3-cells per rank: 6
Periodic mesh (PERIODIC, NONE, NONE) coordinates localized
Labels:
  marker: 1 strata with value/size (1 (54))
  Face Sets: 4 strata with value/size (3 (3), 4 (3), 1 (6), 2 (6))
  depth: 4 strata with value/size (0 (18), 1 (39), 2 (27), 3 (6))
  celltype: 4 strata with value/size (7 (6), 0 (18), 4 (27), 1 (39))
Element #0
0: 0 1 3 4 9 10 12 13
Element #1
0: 1 2 4 5 10 11 13 14
Element #2
0: 2 0 5 3 11 9 14 12
Element #3
0: 3 4 6 7 12 13 15 16
Element #4
0: 4 5 7 8 13 14 16 17
Element #5
0: 5 3 8 6 14 12 17 15
Element #0 coordinates
 0:   0.0000e+00   0.0000e+00   0.0000e+00
 0:   3.3333e-01   0.0000e+00   0.0000e+00
 0:   0.0000e+00   5.0000e-01   0.0000e+00
 0:   3.3333e-01   5.0000e-01   0.0000e+00
 0:   0.0000e+00   0.0000e+00   1.0000e+00
 0:   3.3333e-01   0.0000e+00   1.0000e+00
 0:   0.0000e+00   5.0000e-01   1.0000e+00
 0:   3.3333e-01   5.0000e-01   1.0000e+00
Element #1 coordinates
 0:   3.3333e-01   0.0000e+00   0.0000e+00
 0:   6.6667e-01   0.0000e+00   0.0000e+00
 0:   3.3333e-01   5.0000e-01   0.0000e+00
 0:   6.6667e-01   5.0000e-01   0.0000e+00
 0:   3.3333e-01   0.0000e+00   1.0000e+00
 0:   6.6667e-01   0.0000e+00   1.0000e+00
 0:   3.3333e-01   5.0000e-01   1.0000e+00
 0:   6.6667e-01   5.0000e-01   1.0000e+00
Element #2 coordinates
 0:   6.6667e-01   0.0000e+00   0.0000e+00
 0:   6.6667e-01   5.0000e-01   0.0000e+00
 0:   1.0000e+00   5.0000e-01   0.0000e+00
 0:   1.0000e+00   0.0000e+00   0.0000e+00
 0:   6.6667e-01   0.0000e+00   1.0000e+00
 0:   1.0000e+00   0.0000e+00   1.0000e+00
 0:   1.0000e+00   5.0000e-01   1.0000e+00
 0:   6.6667e-01   5.0000e-01   1.0000e+00
Element #3 coordinates
 0:   0.0000e+00   5.0000e-01   0.0000e+00
 0:   3.3333e-01   5.0000e-01   0.0000e+00
 0:   0.0000e+00   1.0000e+00   0.0000e+00
 0:   3.3333e-01   1.0000e+00   0.0000e+00
 0:   0.0000e+00   5.0000e-01   1.0000e+00
 0:   3.3333e-01   5.0000e-01   1.0000e+00
 0:   0.0000e+00   1.0000e+00   1.0000e+00
 0:   3.3333e-01   1.0000e+00   1.0000e+00
Element #4 coordinates
 0:   3.3333e-01   5.0000e-01   0.0000e+00
 0:   6.6667e-01   5.0000e-01   0.0000e+00
 0:   3.3333e-01   1.0000e+00   0.0000e+00
 0:   6.6667e-01   1.0000e+00   0.0000e+00
 0:   3.3333e-01   5.0000e-01   1.0000e+00
 0:   6.6667e-01   5.0000e-01   1.0000e+00
 0:   3.3333e-01   1.0000e+00   1.0000e+00
 0:   6.6667e-01   1.0000e+00   1.0000e+00
Element #5 coordinates
 0:   6.6667e-01   5.0000e-01   0.0000e+00
 0:   6.6667e-01   1.0000e+00   0.0000e+00
 0:   1.0000e+00   1.0000e+00   0.0000e+00
 0:   1.0000e+00   5.0000e-01   0.0000e+00
 0:   6.6667e-01   5.0000e-01   1.0000e+00
 0:   1.0000e+00   5.0000e-01   1.0000e+00
 0:   1.0000e+00   1.0000e+00   1.0000e+00
 0:   6.6667e-01   1.0000e+00   1.0000e+00
DM box offsets: num_elem 6, size 8, comp 1, dof 18
0: 0 1 3 4 9 10 12 13
0: 1 2 4 5 10 11 13 14
0: 2 0 5 3 11 9 14 12
0: 3 4 6 7 12 13 15 16
0: 4 5 7 8 13 14 16 17
0: 5 3 8 6 14 12 17 15
DM coords offsets: num_elem 6, size 8, comp 3, dof 54
0: 0 3 9 12 27 30 36 39
 0:   0.0000e+00   0.0000e+00   0.0000e+00
 0:   3.3333e-01   0.0000e+00   0.0000e+00
 0:   0.0000e+00   5.0000e-01   0.0000e+00
 0:   3.3333e-01   5.0000e-01   0.0000e+00
 0:   0.0000e+00   0.0000e+00   1.0000e+00
 0:   3.3333e-01   0.0000e+00   1.0000e+00
 0:   0.0000e+00   5.0000e-01   1.0000e+00
 0:   3.3333e-01   5.0000e-01   1.0000e+00
0: 3 6 12 15 30 33 39 42
 0:   3.3333e-01   0.0000e+00   0.0000e+00
 0:   6.6667e-01   0.0000e+00   0.0000e+00
 0:   3.3333e-01   5.0000e-01   0.0000e+00
 0:   6.6667e-01   5.0000e-01   0.0000e+00
 0:   3.3333e-01   0.0000e+00   1.0000e+00
 0:   6.6667e-01   0.0000e+00   1.0000e+00
 0:   3.3333e-01   5.0000e-01   1.0000e+00
 0:   6.6667e-01   5.0000e-01   1.0000e+00
0: 6 0 15 9 33 27 42 36
 0:   6.6667e-01   0.0000e+00   0.0000e+00
 0:   0.0000e+00   0.0000e+00   0.0000e+00
 0:   6.6667e-01   5.0000e-01   0.0000e+00
 0:   0.0000e+00   5.0000e-01   0.0000e+00
 0:   6.6667e-01   0.0000e+00   1.0000e+00
 0:   0.0000e+00   0.0000e+00   1.0000e+00
 0:   6.6667e-01   5.0000e-01   1.0000e+00
 0:   0.0000e+00   5.0000e-01   1.0000e+00
0: 9 12 18 21 36 39 45 48
 0:   0.0000e+00   5.0000e-01   0.0000e+00
 0:   3.3333e-01   5.0000e-01   0.0000e+00
 0:   0.0000e+00   1.0000e+00   0.0000e+00
 0:   3.3333e-01   1.0000e+00   0.0000e+00
 0:   0.0000e+00   5.0000e-01   1.0000e+00
 0:   3.3333e-01   5.0000e-01   1.0000e+00
 0:   0.0000e+00   1.0000e+00   1.0000e+00
 0:   3.3333e-01   1.0000e+00   1.0000e+00
0: 12 15 21 24 39 42 48 51
 0:   3.3333e-01   5.0000e-01   0.0000e+00
 0:   6.6667e-01   5.0000e-01   0.0000e+00
 0:   3.3333e-01   1.0000e+00   0.0000e+00
 0:   6.6667e-01   1.0000e+00   0.0000e+00
 0:   3.3333e-01   5.0000e-01   1.0000e+00
 0:   6.6667e-01   5.0000e-01   1.0000e+00
 0:   3.3333e-01   1.0000e+00   1.0000e+00
 0:   6.6667e-01   1.0000e+00   1.0000e+00
0: 15 9 24 18 42 36 51 45
 0:   6.6667e-01   5.0000e-01   0.0000e+00
 0:   0.0000e+00   5.0000e-01   0.0000e+00
 0:   6.6667e-01   1.0000e+00   0.0000e+00
 0:   0.0000e+00   1.0000e+00   0.0000e+00
 0:   6.6667e-01   5.0000e-01   1.0000e+00
 0:   0.0000e+00   5.0000e-01   1.0000e+00
 0:   6.6667e-01   1.0000e+00   1.0000e+00
 0:   0.0000e+00   1.0000e+00   1.0000e+00
